ISO-10303-21;
HEADER;
FILE_DESCRIPTION (( 'STEP AP214' ),
    '1' );
FILE_NAME ('vacuumCleanerFilterCase.STEP',
    '2020-04-01T13:17:15',
    ( '' ),
    ( '' ),
    'SwSTEP 2.0',
    'SolidWorks 2018',
    '' );
FILE_SCHEMA (( 'AUTOMOTIVE_DESIGN' ));
ENDSEC;

DATA;
#1 = ORIENTED_EDGE ( 'NONE', *, *, #285, .T. ) ;
#2 = DIRECTION ( 'NONE',  ( -0.0000000000000000000, -0.0000000000000000000, -1.000000000000000000 ) ) ;
#3 = DIRECTION ( 'NONE',  ( -0.0000000000000000000, 0.0000000000000000000, 1.000000000000000000 ) ) ;
#4 = FACE_OUTER_BOUND ( 'NONE', #603, .T. ) ;
#5 = CARTESIAN_POINT ( 'NONE',  ( 3.000000000000000000, 107.5000000000000000, 30.00000000000000000 ) ) ;
#6 = STYLED_ITEM ( 'NONE', ( #434 ), #407 ) ;
#7 = DIRECTION ( 'NONE',  ( -1.000000000000000000, 0.0000000000000000000, 0.0000000000000000000 ) ) ;
#8 = CARTESIAN_POINT ( 'NONE',  ( 142.5000000000000284, 3.000000000000000000, 30.00000000000000000 ) ) ;
#9 = DIRECTION ( 'NONE',  ( -0.0000000000000000000, 0.0000000000000000000, 1.000000000000000000 ) ) ;
#10 = EDGE_CURVE ( 'NONE', #362, #129, #675, .T. ) ;
#11 = ORIENTED_EDGE ( 'NONE', *, *, #499, .T. ) ;
#12 = DIRECTION ( 'NONE',  ( -0.0000000000000000000, 0.0000000000000000000, 1.000000000000000000 ) ) ;
#13 = CARTESIAN_POINT ( 'NONE',  ( 0.0000000000000000000, 113.5000000000000000, 30.00000000000000000 ) ) ;
#14 = DIRECTION ( 'NONE',  ( -1.000000000000000000, 0.0000000000000000000, 0.0000000000000000000 ) ) ;
#15 = DIRECTION ( 'NONE',  ( 1.000000000000000000, 0.0000000000000000000, 0.0000000000000000000 ) ) ;
#16 = DIRECTION ( 'NONE',  ( -0.0000000000000000000, 0.0000000000000000000, 1.000000000000000000 ) ) ;
#17 = EDGE_CURVE ( 'NONE', #666, #600, #68, .T. ) ;
#18 = CIRCLE ( 'NONE', #777, 15.00000000000000000 ) ;
#19 = LINE ( 'NONE', #190, #828 ) ;
#20 = CARTESIAN_POINT ( 'NONE',  ( 136.5000000000000000, 110.5000000000000000, 3.000000000000000000 ) ) ;
#21 = VERTEX_POINT ( 'NONE', #378 ) ;
#22 = DIRECTION ( 'NONE',  ( 1.000000000000000000, 0.0000000000000000000, 0.0000000000000000000 ) ) ;
#23 = AXIS2_PLACEMENT_3D ( 'NONE', #844, #2, #305 ) ;
#24 = ORIENTED_EDGE ( 'NONE', *, *, #330, .F. ) ;
#25 = CARTESIAN_POINT ( 'NONE',  ( 0.0000000000000000000, 0.0000000000000000000, 0.0000000000000000000 ) ) ;
#26 = CARTESIAN_POINT ( 'NONE',  ( 93.74999999999998579, 34.24999999999999289, 3.000000000000000000 ) ) ;
#27 = FACE_OUTER_BOUND ( 'NONE', #731, .T. ) ;
#28 = PLANE ( 'NONE',  #942 ) ;
#29 = DIRECTION ( 'NONE',  ( -0.0000000000000000000, -0.0000000000000000000, 1.000000000000000000 ) ) ;
#30 = VECTOR ( 'NONE', #116, 1000.000000000000000 ) ;
#31 = EDGE_CURVE ( 'NONE', #21, #653, #542, .T. ) ;
#32 = DIRECTION ( 'NONE',  ( -0.0000000000000000000, 0.0000000000000000000, 1.000000000000000000 ) ) ;
#33 = VECTOR ( 'NONE', #225, 1000.000000000000000 ) ;
#34 = DIRECTION ( 'NONE',  ( 1.000000000000000000, 0.0000000000000000000, 0.0000000000000000000 ) ) ;
#35 = VERTEX_POINT ( 'NONE', #223 ) ;
#36 = VERTEX_POINT ( 'NONE', #293 ) ;
#37 = CARTESIAN_POINT ( 'NONE',  ( 50.39999999999998437, 34.24999999999998579, 3.000000000000000000 ) ) ;
#38 = AXIS2_PLACEMENT_3D ( 'NONE', #185, #441, #739 ) ;
#39 = CYLINDRICAL_SURFACE ( 'NONE', #507, 1.649999999999998579 ) ;
#40 = VECTOR ( 'NONE', #761, 1000.000000000000000 ) ;
#41 = CARTESIAN_POINT ( 'NONE',  ( 48.74999999999998579, 79.24999999999998579, 0.0000000000000000000 ) ) ;
#42 = ORIENTED_EDGE ( 'NONE', *, *, #266, .F. ) ;
#43 = ADVANCED_FACE ( 'NONE', ( #933 ), #143, .F. ) ;
#44 = AXIS2_PLACEMENT_3D ( 'NONE', #804, #336, #886 ) ;
#45 = CARTESIAN_POINT ( 'NONE',  ( -0.0000000000000000000, 113.5000000000000000, 0.0000000000000000000 ) ) ;
#46 = ORIENTED_EDGE ( 'NONE', *, *, #713, .F. ) ;
#47 = ORIENTED_EDGE ( 'NONE', *, *, #422, .T. ) ;
#48 = AXIS2_PLACEMENT_3D ( 'NONE', #717, #87, #472 ) ;
#49 = EDGE_CURVE ( 'NONE', #129, #204, #721, .T. ) ;
#50 = EDGE_CURVE ( 'NONE', #784, #101, #888, .T. ) ;
#51 = FACE_BOUND ( 'NONE', #579, .T. ) ;
#52 = DIRECTION ( 'NONE',  ( 1.000000000000000000, 0.0000000000000000000, 0.0000000000000000000 ) ) ;
#53 = EDGE_LOOP ( 'NONE', ( #351, #581 ) ) ;
#54 = EDGE_CURVE ( 'NONE', #873, #703, #118, .T. ) ;
#55 = VECTOR ( 'NONE', #956, 1000.000000000000000 ) ;
#56 = CARTESIAN_POINT ( 'NONE',  ( 3.000000000000000000, 0.0000000000000000000, 0.0000000000000000000 ) ) ;
#57 = ORIENTED_EDGE ( 'NONE', *, *, #17, .F. ) ;
#58 = PRESENTATION_STYLE_ASSIGNMENT (( #344 ) ) ;
#59 = AXIS2_PLACEMENT_3D ( 'NONE', #450, #611, #920 ) ;
#60 = DIRECTION ( 'NONE',  ( 1.000000000000000000, 0.0000000000000000000, 0.0000000000000000000 ) ) ;
#61 = EDGE_CURVE ( 'NONE', #204, #426, #301, .T. ) ;
#62 = CARTESIAN_POINT ( 'NONE',  ( 47.10000000000000142, 34.24999999999998579, 0.0000000000000000000 ) ) ;
#63 = VECTOR ( 'NONE', #637, 1000.000000000000000 ) ;
#64 = DIRECTION ( 'NONE',  ( 1.000000000000000000, 0.0000000000000000000, 0.0000000000000000000 ) ) ;
#65 = ORIENTED_EDGE ( 'NONE', *, *, #499, .F. ) ;
#66 = CARTESIAN_POINT ( 'NONE',  ( 56.24999999999999289, 56.74999999999998579, 0.0000000000000000000 ) ) ;
#67 = DIRECTION ( 'NONE',  ( -0.0000000000000000000, 0.0000000000000000000, 1.000000000000000000 ) ) ;
#68 = CIRCLE ( 'NONE', #366, 3.000000000000002665 ) ;
#69 = DIRECTION ( 'NONE',  ( 0.0000000000000000000, 1.000000000000000000, 0.0000000000000000000 ) ) ;
#70 = DIRECTION ( 'NONE',  ( 1.000000000000000000, 0.0000000000000000000, 0.0000000000000000000 ) ) ;
#71 = FACE_OUTER_BOUND ( 'NONE', #783, .T. ) ;
#72 = FACE_OUTER_BOUND ( 'NONE', #100, .T. ) ;
#73 = DIRECTION ( 'NONE',  ( -0.0000000000000000000, -0.0000000000000000000, -1.000000000000000000 ) ) ;
#74 = DIRECTION ( 'NONE',  ( 1.000000000000000000, 0.0000000000000000000, 0.0000000000000000000 ) ) ;
#75 = VECTOR ( 'NONE', #452, 1000.000000000000000 ) ;
#76 = LINE ( 'NONE', #368, #369 ) ;
#77 = DIRECTION ( 'NONE',  ( -1.000000000000000000, 0.0000000000000000000, 0.0000000000000000000 ) ) ;
#78 = CARTESIAN_POINT ( 'NONE',  ( 6.000000000000000000, 6.000000000000000000, 30.00000000000000000 ) ) ;
#79 = MECHANICAL_DESIGN_GEOMETRIC_PRESENTATION_REPRESENTATION (  '', ( #787 ), #280 ) ;
#80 = CARTESIAN_POINT ( 'NONE',  ( 142.5000000000000284, 0.0000000000000000000, 0.0000000000000000000 ) ) ;
#81 = AXIS2_PLACEMENT_3D ( 'NONE', #707, #400, #34 ) ;
#82 = DIRECTION ( 'NONE',  ( 0.0000000000000000000, 1.000000000000000000, 0.0000000000000000000 ) ) ;
#83 = EDGE_CURVE ( 'NONE', #277, #666, #957, .T. ) ;
#84 = DIRECTION ( 'NONE',  ( 0.0000000000000000000, -0.0000000000000000000, 1.000000000000000000 ) ) ;
#85 = FACE_OUTER_BOUND ( 'NONE', #416, .T. ) ;
#86 = FACE_OUTER_BOUND ( 'NONE', #355, .T. ) ;
#87 = DIRECTION ( 'NONE',  ( 0.0000000000000000000, -0.0000000000000000000, 1.000000000000000000 ) ) ;
#88 = VERTEX_POINT ( 'NONE', #770 ) ;
#89 = DIRECTION ( 'NONE',  ( -0.0000000000000000000, -0.0000000000000000000, -1.000000000000000000 ) ) ;
#90 = EDGE_LOOP ( 'NONE', ( #975, #217, #24, #184 ) ) ;
#91 = ORIENTED_EDGE ( 'NONE', *, *, #519, .T. ) ;
#92 = DIRECTION ( 'NONE',  ( 1.000000000000000000, 8.673617379884032514E-16, 0.0000000000000000000 ) ) ;
#93 = ORIENTED_EDGE ( 'NONE', *, *, #967, .F. ) ;
#94 =( NAMED_UNIT ( * ) SI_UNIT ( $, .STERADIAN. ) SOLID_ANGLE_UNIT ( ) );
#95 = ADVANCED_FACE ( 'NONE', ( #909 ), #522, .F. ) ;
#96 = FILL_AREA_STYLE_COLOUR ( '', #834 ) ;
#97 = EDGE_CURVE ( 'NONE', #830, #912, #274, .T. ) ;
#98 = VECTOR ( 'NONE', #455, 1000.000000000000000 ) ;
#99 = EDGE_LOOP ( 'NONE', ( #852, #132, #253, #950 ) ) ;
#100 = EDGE_LOOP ( 'NONE', ( #700, #963, #454, #947 ) ) ;
#101 = VERTEX_POINT ( 'NONE', #140 ) ;
#102 = CARTESIAN_POINT ( 'NONE',  ( 48.74999999999999289, 34.24999999999998579, 3.000000000000000000 ) ) ;
#103 = EDGE_CURVE ( 'NONE', #894, #569, #488, .T. ) ;
#104 =( LENGTH_UNIT ( ) NAMED_UNIT ( * ) SI_UNIT ( .MILLI., .METRE. ) );
#105 = LINE ( 'NONE', #8, #586 ) ;
#106 = FILL_AREA_STYLE_COLOUR ( '', #636 ) ;
#107 = CIRCLE ( 'NONE', #338, 1.649999999999998579 ) ;
#108 = ADVANCED_FACE ( 'NONE', ( #533 ), #304, .F. ) ;
#109 = FACE_OUTER_BOUND ( 'NONE', #111, .T. ) ;
#110 = CIRCLE ( 'NONE', #734, 3.000000000000002665 ) ;
#111 = EDGE_LOOP ( 'NONE', ( #493, #808, #841, #11 ) ) ;
#112 = CARTESIAN_POINT ( 'NONE',  ( 0.0000000000000000000, 0.0000000000000000000, 30.00000000000000000 ) ) ;
#113 = ORIENTED_EDGE ( 'NONE', *, *, #54, .T. ) ;
#114 = AXIS2_PLACEMENT_3D ( 'NONE', #530, #69, #851 ) ;
#115 = ORIENTED_EDGE ( 'NONE', *, *, #684, .F. ) ;
#116 = DIRECTION ( 'NONE',  ( -0.0000000000000000000, -0.0000000000000000000, -1.000000000000000000 ) ) ;
#117 = AXIS2_PLACEMENT_3D ( 'NONE', #617, #290, #778 ) ;
#118 = LINE ( 'NONE', #383, #141 ) ;
#119 = FACE_OUTER_BOUND ( 'NONE', #916, .T. ) ;
#120 = CARTESIAN_POINT ( 'NONE',  ( 3.000000000000000000, 107.5000000000000000, 30.00000000000000000 ) ) ;
#121 = EDGE_LOOP ( 'NONE', ( #440, #352, #704, #445 ) ) ;
#122 = VERTEX_POINT ( 'NONE', #796 ) ;
#123 = DIRECTION ( 'NONE',  ( -1.000000000000000000, 0.0000000000000000000, 0.0000000000000000000 ) ) ;
#124 = ORIENTED_EDGE ( 'NONE', *, *, #627, .T. ) ;
#125 = PRODUCT_DEFINITION_CONTEXT ( 'detailed design', #642, 'design' ) ;
#126 = UNCERTAINTY_MEASURE_WITH_UNIT (LENGTH_MEASURE( 1.000000000000000082E-05 ), #954, 'distance_accuracy_value', 'NONE');
#127 = CARTESIAN_POINT ( 'NONE',  ( 136.5000000000000000, 6.000000000000000000, 2.999999999999999112 ) ) ;
#128 = CARTESIAN_POINT ( 'NONE',  ( 50.39999999999998437, 79.24999999999998579, 0.0000000000000000000 ) ) ;
#129 = VERTEX_POINT ( 'NONE', #468 ) ;
#130 = DIRECTION ( 'NONE',  ( 1.000000000000000000, 0.0000000000000000000, 0.0000000000000000000 ) ) ;
#131 = VERTEX_POINT ( 'NONE', #5 ) ;
#132 = ORIENTED_EDGE ( 'NONE', *, *, #606, .T. ) ;
#133 = ORIENTED_EDGE ( 'NONE', *, *, #103, .F. ) ;
#134 = CARTESIAN_POINT ( 'NONE',  ( 50.39999999999998437, 79.24999999999998579, 3.000000000000000000 ) ) ;
#135 = ORIENTED_EDGE ( 'NONE', *, *, #772, .T. ) ;
#136 = DIRECTION ( 'NONE',  ( -0.0000000000000000000, -0.0000000000000000000, -1.000000000000000000 ) ) ;
#137 = DIRECTION ( 'NONE',  ( 1.000000000000000000, 0.0000000000000000000, 0.0000000000000000000 ) ) ;
#138 = VECTOR ( 'NONE', #696, 1000.000000000000000 ) ;
#139 = DIRECTION ( 'NONE',  ( -1.000000000000000000, 0.0000000000000000000, 0.0000000000000000000 ) ) ;
#140 = CARTESIAN_POINT ( 'NONE',  ( 139.5000000000000000, 0.0000000000000000000, 0.0000000000000000000 ) ) ;
#141 = VECTOR ( 'NONE', #866, 1000.000000000000000 ) ;
#142 = CIRCLE ( 'NONE', #798, 1.649999999999998579 ) ;
#143 = PLANE ( 'NONE',  #114 ) ;
#144 = ORIENTED_EDGE ( 'NONE', *, *, #83, .T. ) ;
#145 = DIRECTION ( 'NONE',  ( -0.0000000000000000000, -0.0000000000000000000, -1.000000000000000000 ) ) ;
#146 = CARTESIAN_POINT ( 'NONE',  ( 6.000000000000000000, 107.5000000000000000, 30.00000000000000000 ) ) ;
#147 = ORIENTED_EDGE ( 'NONE', *, *, #554, .T. ) ;
#148 = DIRECTION ( 'NONE',  ( -1.000000000000000000, 0.0000000000000000000, 0.0000000000000000000 ) ) ;
#149 = ORIENTED_EDGE ( 'NONE', *, *, #736, .T. ) ;
#150 = EDGE_CURVE ( 'NONE', #654, #101, #110, .T. ) ;
#151 = CARTESIAN_POINT ( 'NONE',  ( 6.000000000000000000, 110.5000000000000000, 2.999999999999999112 ) ) ;
#152 = CIRCLE ( 'NONE', #868, 1.649999999999998579 ) ;
#153 = EDGE_CURVE ( 'NONE', #703, #36, #536, .T. ) ;
#154 = DIRECTION ( 'NONE',  ( -0.0000000000000000000, 0.0000000000000000000, 1.000000000000000000 ) ) ;
#155 = DIRECTION ( 'NONE',  ( 1.000000000000000000, 0.0000000000000000000, 0.0000000000000000000 ) ) ;
#156 = LINE ( 'NONE', #587, #30 ) ;
#157 = DIRECTION ( 'NONE',  ( 0.0000000000000000000, 0.0000000000000000000, -1.000000000000000000 ) ) ;
#158 = SURFACE_STYLE_FILL_AREA ( #173 ) ;
#159 = ORIENTED_EDGE ( 'NONE', *, *, #842, .F. ) ;
#160 = CARTESIAN_POINT ( 'NONE',  ( 142.5000000000000284, 110.5000000000000000, 0.0000000000000000000 ) ) ;
#161 = ORIENTED_EDGE ( 'NONE', *, *, #61, .F. ) ;
#162 = CARTESIAN_POINT ( 'NONE',  ( 139.5000000000000000, 107.5000000000000000, 30.00000000000000000 ) ) ;
#163 = ORIENTED_EDGE ( 'NONE', *, *, #662, .F. ) ;
#164 = ORIENTED_EDGE ( 'NONE', *, *, #756, .T. ) ;
#165 = CARTESIAN_POINT ( 'NONE',  ( 0.0000000000000000000, 3.000000000000000000, 30.00000000000000000 ) ) ;
#166 = FACE_BOUND ( 'NONE', #294, .T. ) ;
#167 = FACE_OUTER_BOUND ( 'NONE', #882, .T. ) ;
#168 = DIRECTION ( 'NONE',  ( -0.0000000000000000000, 0.0000000000000000000, 1.000000000000000000 ) ) ;
#169 = EDGE_CURVE ( 'NONE', #984, #794, #258, .T. ) ;
#170 = APPLICATION_PROTOCOL_DEFINITION ( 'draft international standard', 'automotive_design', 1998, #564 ) ;
#171 = DIRECTION ( 'NONE',  ( -0.0000000000000000000, 0.0000000000000000000, 1.000000000000000000 ) ) ;
#172 = ORIENTED_EDGE ( 'NONE', *, *, #150, .T. ) ;
#173 = FILL_AREA_STYLE ('',( #106 ) ) ;
#174 = AXIS2_PLACEMENT_3D ( 'NONE', #127, #674, #60 ) ;
#175 = ORIENTED_EDGE ( 'NONE', *, *, #746, .T. ) ;
#176 = ADVANCED_FACE ( 'NONE', ( #119 ), #548, .T. ) ;
#177 = ORIENTED_EDGE ( 'NONE', *, *, #850, .T. ) ;
#178 = CARTESIAN_POINT ( 'NONE',  ( 3.000000000000000000, 113.5000000000000000, 30.00000000000000000 ) ) ;
#179 = VECTOR ( 'NONE', #621, 1000.000000000000000 ) ;
#180 = CYLINDRICAL_SURFACE ( 'NONE', #953, 1.649999999999998579 ) ;
#181 = AXIS2_PLACEMENT_3D ( 'NONE', #41, #32, #412 ) ;
#182 = DIRECTION ( 'NONE',  ( 0.0000000000000000000, -0.0000000000000000000, -1.000000000000000000 ) ) ;
#183 = EDGE_LOOP ( 'NONE', ( #930, #926 ) ) ;
#184 = ORIENTED_EDGE ( 'NONE', *, *, #877, .F. ) ;
#185 = CARTESIAN_POINT ( 'NONE',  ( 3.000000000000000000, 3.000000000000000000, 30.00000000000000000 ) ) ;
#186 = EDGE_CURVE ( 'NONE', #101, #741, #286, .T. ) ;
#187 = CARTESIAN_POINT ( 'NONE',  ( 0.0000000000000000000, 110.5000000000000000, 30.00000000000000000 ) ) ;
#188 = FACE_OUTER_BOUND ( 'NONE', #688, .T. ) ;
#189 = PRESENTATION_LAYER_ASSIGNMENT (  '', '', ( #6 ) ) ;
#190 = CARTESIAN_POINT ( 'NONE',  ( 47.10000000000000142, 34.24999999999998579, 3.000000000000000000 ) ) ;
#191 = FACE_OUTER_BOUND ( 'NONE', #121, .T. ) ;
#192 = VERTEX_POINT ( 'NONE', #234 ) ;
#193 = CARTESIAN_POINT ( 'NONE',  ( 47.10000000000000142, 34.24999999999998579, 3.000000000000000000 ) ) ;
#194 = VERTEX_POINT ( 'NONE', #552 ) ;
#195 = ORIENTED_EDGE ( 'NONE', *, *, #484, .T. ) ;
#196 = DIRECTION ( 'NONE',  ( 1.000000000000000000, 0.0000000000000000000, 0.0000000000000000000 ) ) ;
#197 = PRODUCT_RELATED_PRODUCT_CATEGORY ( 'part', '', ( #598 ) ) ;
#198 = AXIS2_PLACEMENT_3D ( 'NONE', #371, #457, #691 ) ;
#199 = LINE ( 'NONE', #607, #813 ) ;
#200 = DIRECTION ( 'NONE',  ( 1.000000000000000000, 0.0000000000000000000, 0.0000000000000000000 ) ) ;
#201 = EDGE_CURVE ( 'NONE', #873, #766, #922, .T. ) ;
#202 = LINE ( 'NONE', #269, #612 ) ;
#203 = EDGE_CURVE ( 'NONE', #362, #426, #710, .T. ) ;
#204 = VERTEX_POINT ( 'NONE', #20 ) ;
#205 = CARTESIAN_POINT ( 'NONE',  ( 142.5000000000000284, 0.0000000000000000000, 30.00000000000000000 ) ) ;
#206 = DIRECTION ( 'NONE',  ( 0.0000000000000000000, 0.0000000000000000000, 1.000000000000000000 ) ) ;
#207 = VECTOR ( 'NONE', #157, 1000.000000000000000 ) ;
#208 = CARTESIAN_POINT ( 'NONE',  ( 48.74999999999998579, 79.24999999999998579, 3.000000000000000000 ) ) ;
#209 = CARTESIAN_POINT ( 'NONE',  ( 3.000000000000000000, 0.0000000000000000000, 30.00000000000000000 ) ) ;
#210 = AXIS2_PLACEMENT_3D ( 'NONE', #656, #495, #810 ) ;
#211 = VECTOR ( 'NONE', #29, 1000.000000000000000 ) ;
#212 = EDGE_CURVE ( 'NONE', #539, #913, #829, .T. ) ;
#213 = CARTESIAN_POINT ( 'NONE',  ( 3.000000000000000000, 110.5000000000000000, 30.00000000000000000 ) ) ;
#214 = ORIENTED_EDGE ( 'NONE', *, *, #699, .T. ) ;
#215 = ORIENTED_EDGE ( 'NONE', *, *, #314, .F. ) ;
#216 = CARTESIAN_POINT ( 'NONE',  ( 93.74999999999998579, 34.24999999999999289, 3.000000000000000000 ) ) ;
#217 = ORIENTED_EDGE ( 'NONE', *, *, #662, .T. ) ;
#218 = CARTESIAN_POINT ( 'NONE',  ( 0.0000000000000000000, 110.5000000000000000, 3.000000000000000000 ) ) ;
#219 = LINE ( 'NONE', #634, #449 ) ;
#220 = PLANE ( 'NONE',  #593 ) ;
#221 = DIRECTION ( 'NONE',  ( 0.0000000000000000000, -0.0000000000000000000, -1.000000000000000000 ) ) ;
#222 = FACE_OUTER_BOUND ( 'NONE', #742, .T. ) ;
#223 = CARTESIAN_POINT ( 'NONE',  ( 3.000000000000000000, 0.0000000000000000000, 30.00000000000000000 ) ) ;
#224 = PLANE ( 'NONE',  #469 ) ;
#225 = DIRECTION ( 'NONE',  ( 0.0000000000000000000, 0.0000000000000000000, -1.000000000000000000 ) ) ;
#226 = VERTEX_POINT ( 'NONE', #229 ) ;
#227 = DIRECTION ( 'NONE',  ( 1.000000000000000000, 0.0000000000000000000, 0.0000000000000000000 ) ) ;
#228 = EDGE_LOOP ( 'NONE', ( #149, #473 ) ) ;
#229 = CARTESIAN_POINT ( 'NONE',  ( 139.5000000000000000, 107.5000000000000000, 3.000000000000000000 ) ) ;
#230 = AXIS2_PLACEMENT_3D ( 'NONE', #949, #786, #800 ) ;
#231 = CARTESIAN_POINT ( 'NONE',  ( 71.25000000000000000, 56.74999999999998579, 3.000000000000000000 ) ) ;
#232 = CARTESIAN_POINT ( 'NONE',  ( 93.74999999999998579, 34.24999999999999289, 3.000000000000000000 ) ) ;
#233 = EDGE_CURVE ( 'NONE', #192, #568, #762, .T. ) ;
#234 = CARTESIAN_POINT ( 'NONE',  ( 92.09999999999999432, 34.24999999999999289, 3.000000000000000000 ) ) ;
#235 = VECTOR ( 'NONE', #835, 1000.000000000000000 ) ;
#236 = CARTESIAN_POINT ( 'NONE',  ( 136.5000000000000000, 107.5000000000000000, 2.999999999999999112 ) ) ;
#237 = CARTESIAN_POINT ( 'NONE',  ( 142.5000000000000284, 0.0000000000000000000, 30.00000000000000000 ) ) ;
#238 = AXIS2_PLACEMENT_3D ( 'NONE', #509, #502, #52 ) ;
#239 = ORIENTED_EDGE ( 'NONE', *, *, #354, .F. ) ;
#240 = DIRECTION ( 'NONE',  ( 1.000000000000000000, 0.0000000000000000000, 0.0000000000000000000 ) ) ;
#241 = ORIENTED_EDGE ( 'NONE', *, *, #169, .F. ) ;
#242 = ORIENTED_EDGE ( 'NONE', *, *, #153, .T. ) ;
#243 = CARTESIAN_POINT ( 'NONE',  ( 71.25000000000000000, 56.74999999999998579, 0.0000000000000000000 ) ) ;
#244 = ADVANCED_FACE ( 'NONE', ( #51, #86 ), #881, .T. ) ;
#245 = CARTESIAN_POINT ( 'NONE',  ( 142.5000000000000284, 3.000000000000000000, 30.00000000000000000 ) ) ;
#246 =( NAMED_UNIT ( * ) PLANE_ANGLE_UNIT ( ) SI_UNIT ( $, .RADIAN. ) );
#247 = CIRCLE ( 'NONE', #491, 1.649999999999998579 ) ;
#248 = DIRECTION ( 'NONE',  ( 0.0000000000000000000, 0.0000000000000000000, -1.000000000000000000 ) ) ;
#249 = CYLINDRICAL_SURFACE ( 'NONE', #524, 3.000000000000002665 ) ;
#250 = ADVANCED_FACE ( 'NONE', ( #590 ), #663, .T. ) ;
#251 = EDGE_CURVE ( 'NONE', #795, #309, #489, .T. ) ;
#252 = CARTESIAN_POINT ( 'NONE',  ( 136.5000000000000000, 107.5000000000000000, 30.00000000000000000 ) ) ;
#253 = ORIENTED_EDGE ( 'NONE', *, *, #97, .F. ) ;
#254 = PRODUCT_CONTEXT ( 'NONE', #564, 'mechanical' ) ;
#255 = ORIENTED_EDGE ( 'NONE', *, *, #842, .T. ) ;
#256 = ORIENTED_EDGE ( 'NONE', *, *, #354, .T. ) ;
#257 = DIRECTION ( 'NONE',  ( 1.000000000000000000, 0.0000000000000000000, 0.0000000000000000000 ) ) ;
#258 = CIRCLE ( 'NONE', #789, 15.00000000000000000 ) ;
#259 = DIRECTION ( 'NONE',  ( -1.000000000000000000, 0.0000000000000000000, 0.0000000000000000000 ) ) ;
#260 = ORIENTED_EDGE ( 'NONE', *, *, #826, .T. ) ;
#261 = AXIS2_PLACEMENT_3D ( 'NONE', #232, #171, #876 ) ;
#262 = ORIENTED_EDGE ( 'NONE', *, *, #850, .F. ) ;
#263 = ORIENTED_EDGE ( 'NONE', *, *, #678, .F. ) ;
#264 = ORIENTED_EDGE ( 'NONE', *, *, #736, .F. ) ;
#265 = DIRECTION ( 'NONE',  ( -0.0000000000000000000, -0.0000000000000000000, -1.000000000000000000 ) ) ;
#266 = EDGE_CURVE ( 'NONE', #568, #192, #387, .T. ) ;
#267 = ORIENTED_EDGE ( 'NONE', *, *, #914, .T. ) ;
#268 = LINE ( 'NONE', #793, #207 ) ;
#269 = CARTESIAN_POINT ( 'NONE',  ( 139.5000000000000000, 6.000000000000000000, 30.00000000000000000 ) ) ;
#270 = CYLINDRICAL_SURFACE ( 'NONE', #645, 1.649999999999991696 ) ;
#271 = CYLINDRICAL_SURFACE ( 'NONE', #23, 1.649999999999998579 ) ;
#272 = ADVANCED_BREP_SHAPE_REPRESENTATION ( 'vacuumCleanerFilterCase', ( #407, #860 ), #573 ) ;
#273 = AXIS2_PLACEMENT_3D ( 'NONE', #373, #3, #605 ) ;
#274 = CIRCLE ( 'NONE', #471, 1.649999999999998579 ) ;
#275 = CARTESIAN_POINT ( 'NONE',  ( 139.5000000000000000, 3.000000000000000000, 30.00000000000000000 ) ) ;
#276 = CIRCLE ( 'NONE', #682, 1.649999999999991696 ) ;
#277 = VERTEX_POINT ( 'NONE', #160 ) ;
#278 = VERTEX_POINT ( 'NONE', #711 ) ;
#279 = DIRECTION ( 'NONE',  ( -0.0000000000000000000, -0.0000000000000000000, -1.000000000000000000 ) ) ;
#280 =( GEOMETRIC_REPRESENTATION_CONTEXT ( 3 ) GLOBAL_UNCERTAINTY_ASSIGNED_CONTEXT ( ( #126 ) ) GLOBAL_UNIT_ASSIGNED_CONTEXT ( ( #954, #485, #878 ) ) REPRESENTATION_CONTEXT ( 'NONE', 'WORKASPACE' ) );
#281 = DIRECTION ( 'NONE',  ( -0.0000000000000000000, -0.0000000000000000000, -1.000000000000000000 ) ) ;
#282 = CARTESIAN_POINT ( 'NONE',  ( 3.000000000000000000, 0.0000000000000000000, 0.0000000000000000000 ) ) ;
#283 = LINE ( 'NONE', #959, #827 ) ;
#284 = CYLINDRICAL_SURFACE ( 'NONE', #238, 3.000000000000000888 ) ;
#285 = EDGE_CURVE ( 'NONE', #376, #666, #322, .T. ) ;
#286 = LINE ( 'NONE', #952, #211 ) ;
#287 = CARTESIAN_POINT ( 'NONE',  ( 142.5000000000000284, 110.5000000000000000, 30.00000000000000000 ) ) ;
#288 = ORIENTED_EDGE ( 'NONE', *, *, #627, .F. ) ;
#289 = EDGE_LOOP ( 'NONE', ( #855, #161, #902, #821 ) ) ;
#290 = DIRECTION ( 'NONE',  ( 0.0000000000000000000, -0.0000000000000000000, -1.000000000000000000 ) ) ;
#291 = DIRECTION ( 'NONE',  ( -1.000000000000000000, 0.0000000000000000000, 0.0000000000000000000 ) ) ;
#292 = VERTEX_POINT ( 'NONE', #37 ) ;
#293 = CARTESIAN_POINT ( 'NONE',  ( 136.5000000000000000, 3.000000000000000000, 3.000000000000000000 ) ) ;
#294 = EDGE_LOOP ( 'NONE', ( #833, #483 ) ) ;
#295 = DIRECTION ( 'NONE',  ( -0.0000000000000000000, 0.0000000000000000000, 1.000000000000000000 ) ) ;
#296 = CARTESIAN_POINT ( 'NONE',  ( 48.74999999999999289, 34.24999999999998579, 0.0000000000000000000 ) ) ;
#297 = VECTOR ( 'NONE', #701, 1000.000000000000000 ) ;
#298 = CARTESIAN_POINT ( 'NONE',  ( 139.5000000000000000, 110.5000000000000000, 30.00000000000000000 ) ) ;
#299 = VECTOR ( 'NONE', #864, 1000.000000000000000 ) ;
#300 = DIRECTION ( 'NONE',  ( 0.0000000000000000000, 0.0000000000000000000, -1.000000000000000000 ) ) ;
#301 = LINE ( 'NONE', #862, #98 ) ;
#302 = LINE ( 'NONE', #209, #40 ) ;
#303 = DIRECTION ( 'NONE',  ( 0.0000000000000000000, 0.0000000000000000000, -1.000000000000000000 ) ) ;
#304 = CYLINDRICAL_SURFACE ( 'NONE', #676, 1.649999999999998579 ) ;
#305 = DIRECTION ( 'NONE',  ( -1.000000000000000000, 0.0000000000000000000, 0.0000000000000000000 ) ) ;
#306 = DIRECTION ( 'NONE',  ( 1.000000000000000000, 0.0000000000000000000, 0.0000000000000000000 ) ) ;
#307 = ORIENTED_EDGE ( 'NONE', *, *, #386, .F. ) ;
#308 = CARTESIAN_POINT ( 'NONE',  ( 93.74999999999998579, 34.24999999999999289, 0.0000000000000000000 ) ) ;
#309 = VERTEX_POINT ( 'NONE', #565 ) ;
#310 = ORIENTED_EDGE ( 'NONE', *, *, #83, .F. ) ;
#311 = DIRECTION ( 'NONE',  ( 1.000000000000000000, 0.0000000000000000000, 0.0000000000000000000 ) ) ;
#312 = ORIENTED_EDGE ( 'NONE', *, *, #97, .T. ) ;
#313 = EDGE_CURVE ( 'NONE', #784, #21, #901, .T. ) ;
#314 = EDGE_CURVE ( 'NONE', #292, #551, #752, .T. ) ;
#315 = DIRECTION ( 'NONE',  ( -0.0000000000000000000, 0.0000000000000000000, 1.000000000000000000 ) ) ;
#316 = LINE ( 'NONE', #929, #138 ) ;
#317 = FACE_BOUND ( 'NONE', #508, .T. ) ;
#318 = SHAPE_DEFINITION_REPRESENTATION ( #917, #272 ) ;
#319 = CARTESIAN_POINT ( 'NONE',  ( 0.0000000000000000000, 0.0000000000000000000, 30.00000000000000000 ) ) ;
#320 = CARTESIAN_POINT ( 'NONE',  ( 6.000000000000000000, 3.000000000000000000, 30.00000000000000000 ) ) ;
#321 = VECTOR ( 'NONE', #748, 1000.000000000000000 ) ;
#322 = LINE ( 'NONE', #237, #722 ) ;
#323 = ORIENTED_EDGE ( 'NONE', *, *, #49, .F. ) ;
#324 = CARTESIAN_POINT ( 'NONE',  ( 92.09999999999999432, 79.24999999999998579, 3.000000000000000000 ) ) ;
#325 = VERTEX_POINT ( 'NONE', #178 ) ;
#326 = ORIENTED_EDGE ( 'NONE', *, *, #768, .F. ) ;
#327 = CARTESIAN_POINT ( 'NONE',  ( 0.0000000000000000000, 110.5000000000000000, 30.00000000000000000 ) ) ;
#328 = ORIENTED_EDGE ( 'NONE', *, *, #503, .F. ) ;
#329 = EDGE_CURVE ( 'NONE', #21, #923, #350, .T. ) ;
#330 = EDGE_CURVE ( 'NONE', #794, #984, #409, .T. ) ;
#331 = FILL_AREA_STYLE ('',( #96 ) ) ;
#332 = AXIS2_PLACEMENT_3D ( 'NONE', #853, #531, #384 ) ;
#333 = CARTESIAN_POINT ( 'NONE',  ( 139.5000000000000000, 110.5000000000000000, 0.0000000000000000000 ) ) ;
#334 = VECTOR ( 'NONE', #846, 1000.000000000000000 ) ;
#335 = FACE_OUTER_BOUND ( 'NONE', #905, .T. ) ;
#336 = DIRECTION ( 'NONE',  ( -0.0000000000000000000, 0.0000000000000000000, 1.000000000000000000 ) ) ;
#337 = DIRECTION ( 'NONE',  ( -0.0000000000000000000, 0.0000000000000000000, 1.000000000000000000 ) ) ;
#338 = AXIS2_PLACEMENT_3D ( 'NONE', #460, #9, #70 ) ;
#339 = ORIENTED_EDGE ( 'NONE', *, *, #648, .T. ) ;
#340 = ORIENTED_EDGE ( 'NONE', *, *, #212, .F. ) ;
#341 = ADVANCED_FACE ( 'NONE', ( #467 ), #979, .F. ) ;
#342 = ORIENTED_EDGE ( 'NONE', *, *, #529, .F. ) ;
#343 = DIRECTION ( 'NONE',  ( 1.000000000000000000, 0.0000000000000000000, 0.0000000000000000000 ) ) ;
#344 = SURFACE_STYLE_USAGE ( .BOTH. , #968 ) ;
#345 = CIRCLE ( 'NONE', #895, 3.000000000000000888 ) ;
#346 = DIRECTION ( 'NONE',  ( 1.000000000000000000, 0.0000000000000000000, 0.0000000000000000000 ) ) ;
#347 = LINE ( 'NONE', #470, #297 ) ;
#348 = DIRECTION ( 'NONE',  ( 1.000000000000000000, 0.0000000000000000000, 0.0000000000000000000 ) ) ;
#349 = VECTOR ( 'NONE', #899, 1000.000000000000000 ) ;
#350 = LINE ( 'NONE', #429, #614 ) ;
#351 = ORIENTED_EDGE ( 'NONE', *, *, #330, .T. ) ;
#352 = ORIENTED_EDGE ( 'NONE', *, *, #436, .F. ) ;
#353 = CARTESIAN_POINT ( 'NONE',  ( 92.09999999999999432, 79.24999999999998579, 3.000000000000000000 ) ) ;
#354 = EDGE_CURVE ( 'NONE', #325, #194, #776, .T. ) ;
#355 = EDGE_LOOP ( 'NONE', ( #481, #523, #195, #504, #1, #831, #715, #256 ) ) ;
#356 = ORIENTED_EDGE ( 'NONE', *, *, #314, .T. ) ;
#357 = CARTESIAN_POINT ( 'NONE',  ( 139.5000000000000000, 6.000000000000000000, 30.00000000000000000 ) ) ;
#358 = DIRECTION ( 'NONE',  ( -0.0000000000000000000, -0.0000000000000000000, -1.000000000000000000 ) ) ;
#359 = CIRCLE ( 'NONE', #456, 3.000000000000002665 ) ;
#360 = DIRECTION ( 'NONE',  ( -0.0000000000000000000, -0.0000000000000000000, -1.000000000000000000 ) ) ;
#361 = ORIENTED_EDGE ( 'NONE', *, *, #313, .T. ) ;
#362 = VERTEX_POINT ( 'NONE', #897 ) ;
#363 = CARTESIAN_POINT ( 'NONE',  ( 139.5000000000000000, 6.000000000000000000, 3.000000000000000000 ) ) ;
#364 = ORIENTED_EDGE ( 'NONE', *, *, #869, .F. ) ;
#365 = ORIENTED_EDGE ( 'NONE', *, *, #203, .T. ) ;
#366 = AXIS2_PLACEMENT_3D ( 'NONE', #298, #938, #64 ) ;
#367 = FACE_OUTER_BOUND ( 'NONE', #90, .T. ) ;
#368 = CARTESIAN_POINT ( 'NONE',  ( 50.39999999999998437, 34.24999999999998579, 3.000000000000000000 ) ) ;
#369 = VECTOR ( 'NONE', #136, 1000.000000000000000 ) ;
#370 = LINE ( 'NONE', #353, #969 ) ;
#371 = CARTESIAN_POINT ( 'NONE',  ( 0.0000000000000000000, 0.0000000000000000000, 3.000000000000000000 ) ) ;
#372 = EDGE_LOOP ( 'NONE', ( #781, #339, #115, #428 ) ) ;
#373 = CARTESIAN_POINT ( 'NONE',  ( 71.25000000000000000, 56.74999999999998579, 3.000000000000000000 ) ) ;
#374 = ORIENTED_EDGE ( 'NONE', *, *, #50, .F. ) ;
#375 = VERTEX_POINT ( 'NONE', #812 ) ;
#376 = VERTEX_POINT ( 'NONE', #245 ) ;
#377 = DIRECTION ( 'NONE',  ( -1.000000000000000000, 0.0000000000000000000, 0.0000000000000000000 ) ) ;
#378 = CARTESIAN_POINT ( 'NONE',  ( 0.0000000000000000000, 3.000000000000000000, 0.0000000000000000000 ) ) ;
#379 = CIRCLE ( 'NONE', #518, 3.000000000000000888 ) ;
#380 = DIRECTION ( 'NONE',  ( 0.0000000000000000000, 0.0000000000000000000, -1.000000000000000000 ) ) ;
#381 = FACE_OUTER_BOUND ( 'NONE', #438, .T. ) ;
#382 = CARTESIAN_POINT ( 'NONE',  ( 139.5000000000000000, 113.5000000000000000, 30.00000000000000000 ) ) ;
#383 = CARTESIAN_POINT ( 'NONE',  ( 0.0000000000000000000, 3.000000000000000000, 30.00000000000000000 ) ) ;
#384 = DIRECTION ( 'NONE',  ( 1.000000000000000000, 0.0000000000000000000, 0.0000000000000000000 ) ) ;
#385 = CIRCLE ( 'NONE', #596, 1.649999999999998579 ) ;
#386 = EDGE_CURVE ( 'NONE', #389, #277, #359, .T. ) ;
#387 = CIRCLE ( 'NONE', #261, 1.649999999999998579 ) ;
#388 = CARTESIAN_POINT ( 'NONE',  ( 93.74999999999998579, 79.24999999999998579, 3.000000000000000000 ) ) ;
#389 = VERTEX_POINT ( 'NONE', #421 ) ;
#390 = CARTESIAN_POINT ( 'NONE',  ( 6.000000000000000000, 3.000000000000000000, 3.000000000000000000 ) ) ;
#391 = ORIENTED_EDGE ( 'NONE', *, *, #684, .T. ) ;
#392 = CARTESIAN_POINT ( 'NONE',  ( 48.74999999999999289, 34.24999999999998579, 3.000000000000000000 ) ) ;
#393 = ORIENTED_EDGE ( 'NONE', *, *, #251, .F. ) ;
#394 = AXIS2_PLACEMENT_3D ( 'NONE', #447, #613, #448 ) ;
#395 = DIRECTION ( 'NONE',  ( 1.000000000000000000, 0.0000000000000000000, 0.0000000000000000000 ) ) ;
#396 = CIRCLE ( 'NONE', #332, 1.649999999999998579 ) ;
#397 = DIRECTION ( 'NONE',  ( -0.0000000000000000000, 0.0000000000000000000, 1.000000000000000000 ) ) ;
#398 = CARTESIAN_POINT ( 'NONE',  ( 139.5000000000000000, 0.0000000000000000000, 30.00000000000000000 ) ) ;
#399 = ORIENTED_EDGE ( 'NONE', *, *, #482, .F. ) ;
#400 = DIRECTION ( 'NONE',  ( -0.0000000000000000000, 0.0000000000000000000, 1.000000000000000000 ) ) ;
#401 = DIRECTION ( 'NONE',  ( -1.000000000000000000, 0.0000000000000000000, 0.0000000000000000000 ) ) ;
#402 = ORIENTED_EDGE ( 'NONE', *, *, #609, .T. ) ;
#403 = EDGE_LOOP ( 'NONE', ( #374, #361, #903, #628, #513, #528, #838, #172 ) ) ;
#404 = DIRECTION ( 'NONE',  ( 0.0000000000000000000, -0.0000000000000000000, -1.000000000000000000 ) ) ;
#405 = EDGE_CURVE ( 'NONE', #974, #278, #142, .T. ) ;
#406 = CARTESIAN_POINT ( 'NONE',  ( 92.09999999999999432, 79.24999999999998579, 0.0000000000000000000 ) ) ;
#407 = MANIFOLD_SOLID_BREP ( 'Zaokrąglenie1', #620 ) ;
#408 = VECTOR ( 'NONE', #281, 1000.000000000000000 ) ;
#409 = CIRCLE ( 'NONE', #951, 15.00000000000000000 ) ;
#410 = CARTESIAN_POINT ( 'NONE',  ( 71.25000000000000000, 56.74999999999998579, 0.0000000000000000000 ) ) ;
#411 = AXIS2_PLACEMENT_3D ( 'NONE', #908, #291, #206 ) ;
#412 = DIRECTION ( 'NONE',  ( 1.000000000000000000, 0.0000000000000000000, 0.0000000000000000000 ) ) ;
#413 = ORIENTED_EDGE ( 'NONE', *, *, #422, .F. ) ;
#414 = ADVANCED_FACE ( 'NONE', ( #946 ), #563, .T. ) ;
#415 = DIRECTION ( 'NONE',  ( -0.0000000000000000000, 0.0000000000000000000, 1.000000000000000000 ) ) ;
#416 = EDGE_LOOP ( 'NONE', ( #937, #616, #632, #262 ) ) ;
#417 = ORIENTED_EDGE ( 'NONE', *, *, #233, .F. ) ;
#418 = SURFACE_SIDE_STYLE ('',( #158 ) ) ;
#419 = DIRECTION ( 'NONE',  ( 0.0000000000000000000, 0.0000000000000000000, 1.000000000000000000 ) ) ;
#420 = AXIS2_PLACEMENT_3D ( 'NONE', #216, #73, #604 ) ;
#421 = CARTESIAN_POINT ( 'NONE',  ( 139.5000000000000000, 113.5000000000000000, 0.0000000000000000000 ) ) ;
#422 = EDGE_CURVE ( 'NONE', #795, #771, #283, .T. ) ;
#423 = FACE_OUTER_BOUND ( 'NONE', #99, .T. ) ;
#424 = CARTESIAN_POINT ( 'NONE',  ( 3.000000000000000000, 110.5000000000000000, 30.00000000000000000 ) ) ;
#425 = EDGE_CURVE ( 'NONE', #375, #389, #651, .T. ) ;
#426 = VERTEX_POINT ( 'NONE', #580 ) ;
#427 = ORIENTED_EDGE ( 'NONE', *, *, #313, .F. ) ;
#428 = ORIENTED_EDGE ( 'NONE', *, *, #532, .F. ) ;
#429 = CARTESIAN_POINT ( 'NONE',  ( 0.0000000000000000000, 3.000000000000000000, 30.00000000000000000 ) ) ;
#430 = ADVANCED_FACE ( 'NONE', ( #191 ), #284, .F. ) ;
#431 = CYLINDRICAL_SURFACE ( 'NONE', #863, 15.00000000000000000 ) ;
#432 = CARTESIAN_POINT ( 'NONE',  ( 0.0000000000000000000, 0.0000000000000000000, 30.00000000000000000 ) ) ;
#433 = CARTESIAN_POINT ( 'NONE',  ( 0.0000000000000000000, 0.0000000000000000000, 30.00000000000000000 ) ) ;
#434 = PRESENTATION_STYLE_ASSIGNMENT (( #818 ) ) ;
#435 = ORIENTED_EDGE ( 'NONE', *, *, #648, .F. ) ;
#436 = EDGE_CURVE ( 'NONE', #88, #131, #451, .T. ) ;
#437 = VERTEX_POINT ( 'NONE', #363 ) ;
#438 = EDGE_LOOP ( 'NONE', ( #872, #135, #712, #144 ) ) ;
#439 = ORIENTED_EDGE ( 'NONE', *, *, #186, .F. ) ;
#440 = ORIENTED_EDGE ( 'NONE', *, *, #660, .F. ) ;
#441 = DIRECTION ( 'NONE',  ( -0.0000000000000000000, 0.0000000000000000000, 1.000000000000000000 ) ) ;
#442 = FACE_OUTER_BOUND ( 'NONE', #809, .T. ) ;
#443 = CARTESIAN_POINT ( 'NONE',  ( 92.09999999999999432, 34.24999999999999289, 3.000000000000000000 ) ) ;
#444 = DIRECTION ( 'NONE',  ( -0.0000000000000000000, -0.0000000000000000000, -1.000000000000000000 ) ) ;
#445 = ORIENTED_EDGE ( 'NONE', *, *, #10, .F. ) ;
#446 = ORIENTED_EDGE ( 'NONE', *, *, #61, .T. ) ;
#447 = CARTESIAN_POINT ( 'NONE',  ( 6.000000000000000000, 6.000000000000000000, 30.00000000000000000 ) ) ;
#448 = DIRECTION ( 'NONE',  ( -1.000000000000000000, 0.0000000000000000000, 0.0000000000000000000 ) ) ;
#449 = VECTOR ( 'NONE', #630, 1000.000000000000000 ) ;
#450 = CARTESIAN_POINT ( 'NONE',  ( 139.5000000000000000, 3.000000000000000000, 30.00000000000000000 ) ) ;
#451 = LINE ( 'NONE', #120, #235 ) ;
#452 = DIRECTION ( 'NONE',  ( -0.0000000000000000000, -0.0000000000000000000, 1.000000000000000000 ) ) ;
#453 = DIRECTION ( 'NONE',  ( 1.000000000000000000, 0.0000000000000000000, 0.0000000000000000000 ) ) ;
#454 = ORIENTED_EDGE ( 'NONE', *, *, #540, .T. ) ;
#455 = DIRECTION ( 'NONE',  ( -0.0000000000000000000, -0.0000000000000000000, 1.000000000000000000 ) ) ;
#456 = AXIS2_PLACEMENT_3D ( 'NONE', #333, #182, #343 ) ;
#457 = DIRECTION ( 'NONE',  ( -0.0000000000000000000, 0.0000000000000000000, 1.000000000000000000 ) ) ;
#458 = ORIENTED_EDGE ( 'NONE', *, *, #925, .T. ) ;
#459 = VERTEX_POINT ( 'NONE', #981 ) ;
#460 = CARTESIAN_POINT ( 'NONE',  ( 48.74999999999998579, 79.24999999999998579, 3.000000000000000000 ) ) ;
#461 = CARTESIAN_POINT ( 'NONE',  ( 48.74999999999998579, 79.24999999999998579, 0.0000000000000000000 ) ) ;
#462 = CYLINDRICAL_SURFACE ( 'NONE', #910, 3.000000000000002665 ) ;
#463 = CARTESIAN_POINT ( 'NONE',  ( 71.25000000000000000, 56.74999999999998579, 3.000000000000000000 ) ) ;
#464 = CIRCLE ( 'NONE', #59, 3.000000000000002665 ) ;
#465 = VECTOR ( 'NONE', #993, 1000.000000000000000 ) ;
#466 = DIRECTION ( 'NONE',  ( 0.0000000000000000000, -0.0000000000000000000, 1.000000000000000000 ) ) ;
#467 = FACE_OUTER_BOUND ( 'NONE', #289, .T. ) ;
#468 = CARTESIAN_POINT ( 'NONE',  ( 6.000000000000000000, 110.5000000000000000, 3.000000000000000000 ) ) ;
#469 = AXIS2_PLACEMENT_3D ( 'NONE', #398, #626, #943 ) ;
#470 = CARTESIAN_POINT ( 'NONE',  ( 3.000000000000000000, 6.000000000000000000, 30.00000000000000000 ) ) ;
#471 = AXIS2_PLACEMENT_3D ( 'NONE', #308, #16, #686 ) ;
#472 = DIRECTION ( 'NONE',  ( 1.000000000000000000, 0.0000000000000000000, 0.0000000000000000000 ) ) ;
#473 = ORIENTED_EDGE ( 'NONE', *, *, #967, .T. ) ;
#474 = CARTESIAN_POINT ( 'NONE',  ( 92.09999999999999432, 34.24999999999999289, 0.0000000000000000000 ) ) ;
#475 = CIRCLE ( 'NONE', #848, 3.000000000000002665 ) ;
#476 = DIRECTION ( 'NONE',  ( -0.0000000000000000000, 0.0000000000000000000, 1.000000000000000000 ) ) ;
#477 = AXIS2_PLACEMENT_3D ( 'NONE', #252, #248, #652 ) ;
#478 = LINE ( 'NONE', #187, #978 ) ;
#479 = DIRECTION ( 'NONE',  ( -0.0000000000000000000, -0.0000000000000000000, -1.000000000000000000 ) ) ;
#480 = EDGE_CURVE ( 'NONE', #923, #194, #987, .T. ) ;
#481 = ORIENTED_EDGE ( 'NONE', *, *, #480, .F. ) ;
#482 = EDGE_CURVE ( 'NONE', #35, #784, #891, .T. ) ;
#483 = ORIENTED_EDGE ( 'NONE', *, *, #629, .T. ) ;
#484 = EDGE_CURVE ( 'NONE', #35, #741, #709, .T. ) ;
#485 =( NAMED_UNIT ( * ) PLANE_ANGLE_UNIT ( ) SI_UNIT ( $, .RADIAN. ) );
#486 = DIRECTION ( 'NONE',  ( 1.000000000000000000, 0.0000000000000000000, 0.0000000000000000000 ) ) ;
#487 = ADVANCED_FACE ( 'NONE', ( #423 ), #180, .F. ) ;
#488 = CIRCLE ( 'NONE', #588, 1.649999999999991696 ) ;
#489 = CIRCLE ( 'NONE', #81, 1.649999999999998579 ) ;
#490 =( NAMED_UNIT ( * ) PLANE_ANGLE_UNIT ( ) SI_UNIT ( $, .RADIAN. ) );
#491 = AXIS2_PLACEMENT_3D ( 'NONE', #921, #683, #200 ) ;
#492 = EDGE_CURVE ( 'NONE', #923, #35, #599, .T. ) ;
#493 = ORIENTED_EDGE ( 'NONE', *, *, #31, .F. ) ;
#494 = ORIENTED_EDGE ( 'NONE', *, *, #699, .F. ) ;
#495 = DIRECTION ( 'NONE',  ( 0.0000000000000000000, -0.0000000000000000000, -1.000000000000000000 ) ) ;
#496 = VECTOR ( 'NONE', #555, 1000.000000000000000 ) ;
#497 = ADVANCED_FACE ( 'NONE', ( #500 ), #822, .F. ) ;
#498 = CARTESIAN_POINT ( 'NONE',  ( 139.5000000000000000, 110.5000000000000000, 30.00000000000000000 ) ) ;
#499 = EDGE_CURVE ( 'NONE', #194, #653, #478, .T. ) ;
#500 = FACE_OUTER_BOUND ( 'NONE', #594, .T. ) ;
#501 = VECTOR ( 'NONE', #871, 1000.000000000000000 ) ;
#502 = DIRECTION ( 'NONE',  ( 0.0000000000000000000, -0.0000000000000000000, 1.000000000000000000 ) ) ;
#503 = EDGE_CURVE ( 'NONE', #309, #832, #156, .T. ) ;
#504 = ORIENTED_EDGE ( 'NONE', *, *, #735, .T. ) ;
#505 = ADVANCED_FACE ( 'NONE', ( #790 ), #249, .T. ) ;
#506 = EDGE_LOOP ( 'NONE', ( #391, #960 ) ) ;
#507 = AXIS2_PLACEMENT_3D ( 'NONE', #208, #145, #7 ) ;
#508 = EDGE_LOOP ( 'NONE', ( #312, #458 ) ) ;
#509 = CARTESIAN_POINT ( 'NONE',  ( 6.000000000000000000, 107.5000000000000000, 30.00000000000000000 ) ) ;
#510 = ORIENTED_EDGE ( 'NONE', *, *, #925, .F. ) ;
#511 = AXIS2_PLACEMENT_3D ( 'NONE', #773, #843, #673 ) ;
#512 = VECTOR ( 'NONE', #695, 1000.000000000000000 ) ;
#513 = ORIENTED_EDGE ( 'NONE', *, *, #425, .T. ) ;
#514 = DIRECTION ( 'NONE',  ( -0.0000000000000000000, -0.0000000000000000000, 1.000000000000000000 ) ) ;
#515 = ORIENTED_EDGE ( 'NONE', *, *, #869, .T. ) ;
#516 = ORIENTED_EDGE ( 'NONE', *, *, #482, .T. ) ;
#517 = VERTEX_POINT ( 'NONE', #672 ) ;
#518 = AXIS2_PLACEMENT_3D ( 'NONE', #650, #724, #240 ) ;
#519 = EDGE_CURVE ( 'NONE', #192, #830, #577, .T. ) ;
#520 = CARTESIAN_POINT ( 'NONE',  ( 142.5000000000000284, 3.000000000000000000, 0.0000000000000000000 ) ) ;
#521 = CARTESIAN_POINT ( 'NONE',  ( 71.25000000000000000, 56.74999999999998579, 3.000000000000000000 ) ) ;
#522 = CYLINDRICAL_SURFACE ( 'NONE', #976, 1.649999999999991696 ) ;
#523 = ORIENTED_EDGE ( 'NONE', *, *, #492, .T. ) ;
#524 = AXIS2_PLACEMENT_3D ( 'NONE', #275, #665, #259 ) ;
#525 = ORIENTED_EDGE ( 'NONE', *, *, #425, .F. ) ;
#526 = DIRECTION ( 'NONE',  ( 0.0000000000000000000, 0.0000000000000000000, -1.000000000000000000 ) ) ;
#527 = CARTESIAN_POINT ( 'NONE',  ( 3.000000000000000000, 110.5000000000000000, 0.0000000000000000000 ) ) ;
#528 = ORIENTED_EDGE ( 'NONE', *, *, #386, .T. ) ;
#529 = EDGE_CURVE ( 'NONE', #437, #539, #202, .T. ) ;
#530 = CARTESIAN_POINT ( 'NONE',  ( 0.0000000000000000000, 110.5000000000000000, 30.00000000000000000 ) ) ;
#531 = DIRECTION ( 'NONE',  ( -0.0000000000000000000, 0.0000000000000000000, 1.000000000000000000 ) ) ;
#532 = EDGE_CURVE ( 'NONE', #551, #569, #19, .T. ) ;
#533 = FACE_OUTER_BOUND ( 'NONE', #962, .T. ) ;
#534 = DIRECTION ( 'NONE',  ( -0.0000000000000000000, -0.0000000000000000000, -1.000000000000000000 ) ) ;
#535 = AXIS2_PLACEMENT_3D ( 'NONE', #236, #315, #227 ) ;
#536 = LINE ( 'NONE', #624, #33 ) ;
#537 = CARTESIAN_POINT ( 'NONE',  ( 6.000000000000000000, 107.5000000000000000, 2.999999999999999112 ) ) ;
#538 = ORIENTED_EDGE ( 'NONE', *, *, #54, .F. ) ;
#539 = VERTEX_POINT ( 'NONE', #357 ) ;
#540 = EDGE_CURVE ( 'NONE', #974, #964, #370, .T. ) ;
#541 = CARTESIAN_POINT ( 'NONE',  ( 136.5000000000000000, 6.000000000000000000, 30.00000000000000000 ) ) ;
#542 = LINE ( 'NONE', #774, #750 ) ;
#543 = PLANE ( 'NONE',  #615 ) ;
#544 = CARTESIAN_POINT ( 'NONE',  ( 0.0000000000000000000, 3.000000000000000000, 30.00000000000000000 ) ) ;
#545 = DIRECTION ( 'NONE',  ( 0.0000000000000000000, -0.0000000000000000000, 1.000000000000000000 ) ) ;
#546 = DIRECTION ( 'NONE',  ( 1.000000000000000000, 0.0000000000000000000, 0.0000000000000000000 ) ) ;
#547 = CIRCLE ( 'NONE', #174, 3.000000000000002665 ) ;
#548 = PLANE ( 'NONE',  #638 ) ;
#549 = ORIENTED_EDGE ( 'NONE', *, *, #212, .T. ) ;
#550 = CARTESIAN_POINT ( 'NONE',  ( 50.39999999999998437, 34.24999999999998579, 0.0000000000000000000 ) ) ;
#551 = VERTEX_POINT ( 'NONE', #193 ) ;
#552 = CARTESIAN_POINT ( 'NONE',  ( 0.0000000000000000000, 110.5000000000000000, 30.00000000000000000 ) ) ;
#553 = ORIENTED_EDGE ( 'NONE', *, *, #405, .F. ) ;
#554 = EDGE_CURVE ( 'NONE', #36, #437, #547, .T. ) ;
#555 = DIRECTION ( 'NONE',  ( 0.0000000000000000000, 1.000000000000000000, -0.0000000000000000000 ) ) ;
#556 = VERTEX_POINT ( 'NONE', #669 ) ;
#557 = LINE ( 'NONE', #893, #55 ) ;
#558 = CARTESIAN_POINT ( 'NONE',  ( 139.5000000000000000, 0.0000000000000000000, 30.00000000000000000 ) ) ;
#559 = CARTESIAN_POINT ( 'NONE',  ( 86.25000000000000000, 56.74999999999998579, 0.0000000000000000000 ) ) ;
#560 = ADVANCED_FACE ( 'NONE', ( #109 ), #751, .T. ) ;
#561 = DIRECTION ( 'NONE',  ( 0.0000000000000000000, -0.0000000000000000000, -1.000000000000000000 ) ) ;
#562 = AXIS2_PLACEMENT_3D ( 'NONE', #213, #300, #77 ) ;
#563 = CYLINDRICAL_SURFACE ( 'NONE', #814, 3.000000000000002665 ) ;
#564 = APPLICATION_CONTEXT ( 'automotive_design' ) ;
#565 = CARTESIAN_POINT ( 'NONE',  ( 47.09999999999998721, 79.24999999999998579, 3.000000000000000000 ) ) ;
#566 = ORIENTED_EDGE ( 'NONE', *, *, #992, .T. ) ;
#567 = EDGE_LOOP ( 'NONE', ( #494, #342, #619, #764 ) ) ;
#568 = VERTEX_POINT ( 'NONE', #906 ) ;
#569 = VERTEX_POINT ( 'NONE', #62 ) ;
#570 = ORIENTED_EDGE ( 'NONE', *, *, #484, .F. ) ;
#571 = UNCERTAINTY_MEASURE_WITH_UNIT (LENGTH_MEASURE( 1.000000000000000082E-05 ), #961, 'distance_accuracy_value', 'NONE');
#572 = FACE_BOUND ( 'NONE', #767, .T. ) ;
#573 =( GEOMETRIC_REPRESENTATION_CONTEXT ( 3 ) GLOBAL_UNCERTAINTY_ASSIGNED_CONTEXT ( ( #867 ) ) GLOBAL_UNIT_ASSIGNED_CONTEXT ( ( #104, #246, #94 ) ) REPRESENTATION_CONTEXT ( 'NONE', 'WORKASPACE' ) );
#574 = DIRECTION ( 'NONE',  ( 0.0000000000000000000, -0.0000000000000000000, 1.000000000000000000 ) ) ;
#575 = LINE ( 'NONE', #618, #179 ) ;
#576 = EDGE_CURVE ( 'NONE', #653, #375, #816, .T. ) ;
#577 = LINE ( 'NONE', #443, #349 ) ;
#578 = ADVANCED_FACE ( 'NONE', ( #589 ), #803, .F. ) ;
#579 = EDGE_LOOP ( 'NONE', ( #538, #817, #124, #874, #365, #175, #340, #214 ) ) ;
#580 = CARTESIAN_POINT ( 'NONE',  ( 136.5000000000000000, 110.5000000000000000, 30.00000000000000000 ) ) ;
#581 = ORIENTED_EDGE ( 'NONE', *, *, #169, .T. ) ;
#582 = EDGE_LOOP ( 'NONE', ( #553, #989 ) ) ;
#583 = AXIS2_PLACEMENT_3D ( 'NONE', #424, #892, #348 ) ;
#584 = DIRECTION ( 'NONE',  ( 0.0000000000000000000, 0.0000000000000000000, -1.000000000000000000 ) ) ;
#585 = LINE ( 'NONE', #936, #658 ) ;
#586 = VECTOR ( 'NONE', #380, 1000.000000000000000 ) ;
#587 = CARTESIAN_POINT ( 'NONE',  ( 47.09999999999998721, 79.24999999999998579, 3.000000000000000000 ) ) ;
#588 = AXIS2_PLACEMENT_3D ( 'NONE', #698, #12, #137 ) ;
#589 = FACE_OUTER_BOUND ( 'NONE', #792, .T. ) ;
#590 = FACE_OUTER_BOUND ( 'NONE', #857, .T. ) ;
#591 = EDGE_CURVE ( 'NONE', #459, #517, #760, .T. ) ;
#592 = ORIENTED_EDGE ( 'NONE', *, *, #329, .F. ) ;
#593 = AXIS2_PLACEMENT_3D ( 'NONE', #205, #782, #991 ) ;
#594 = EDGE_LOOP ( 'NONE', ( #570, #516, #657, #928 ) ) ;
#595 = CARTESIAN_POINT ( 'NONE',  ( 93.74999999999998579, 34.24999999999999289, 3.000000000000000000 ) ) ;
#596 = AXIS2_PLACEMENT_3D ( 'NONE', #785, #779, #306 ) ;
#597 = EDGE_CURVE ( 'NONE', #325, #600, #900, .T. ) ;
#598 = PRODUCT ( 'vacuumCleanerFilterCase', 'vacuumCleanerFilterCase', '', ( #254 ) ) ;
#599 = CIRCLE ( 'NONE', #38, 3.000000000000000000 ) ;
#600 = VERTEX_POINT ( 'NONE', #382 ) ;
#601 = CARTESIAN_POINT ( 'NONE',  ( 86.25000000000000000, 56.74999999999998579, 3.000000000000000000 ) ) ;
#602 = ORIENTED_EDGE ( 'NONE', *, *, #973, .T. ) ;
#603 = EDGE_LOOP ( 'NONE', ( #948, #763, #91, #510 ) ) ;
#604 = DIRECTION ( 'NONE',  ( -1.000000000000000000, 0.0000000000000000000, 0.0000000000000000000 ) ) ;
#605 = DIRECTION ( 'NONE',  ( 1.000000000000000000, 0.0000000000000000000, 0.0000000000000000000 ) ) ;
#606 = EDGE_CURVE ( 'NONE', #568, #912, #737, .T. ) ;
#607 = CARTESIAN_POINT ( 'NONE',  ( 139.5000000000000000, 107.5000000000000000, 30.00000000000000000 ) ) ;
#608 = CIRCLE ( 'NONE', #117, 3.000000000000002665 ) ;
#609 = EDGE_CURVE ( 'NONE', #278, #122, #759, .T. ) ;
#610 = CARTESIAN_POINT ( 'NONE',  ( 95.39999999999999147, 34.24999999999999289, 3.000000000000000000 ) ) ;
#611 = DIRECTION ( 'NONE',  ( -0.0000000000000000000, 0.0000000000000000000, 1.000000000000000000 ) ) ;
#612 = VECTOR ( 'NONE', #514, 1000.000000000000000 ) ;
#613 = DIRECTION ( 'NONE',  ( 0.0000000000000000000, 0.0000000000000000000, -1.000000000000000000 ) ) ;
#614 = VECTOR ( 'NONE', #727, 1000.000000000000000 ) ;
#615 = AXIS2_PLACEMENT_3D ( 'NONE', #13, #623, #466 ) ;
#616 = ORIENTED_EDGE ( 'NONE', *, *, #973, .F. ) ;
#617 = CARTESIAN_POINT ( 'NONE',  ( 136.5000000000000000, 107.5000000000000000, 30.00000000000000000 ) ) ;
#618 = CARTESIAN_POINT ( 'NONE',  ( 0.0000000000000000000, 3.000000000000000000, 3.000000000000000000 ) ) ;
#619 = ORIENTED_EDGE ( 'NONE', *, *, #554, .F. ) ;
#620 = CLOSED_SHELL ( 'NONE', ( #732, #95, #487, #108, #738, #578, #733, #815, #820, #825, #805, #896, #497, #811, #720, #176, #644, #43, #887, #560, #244, #250, #505, #824, #341, #430, #649, #726, #414 ) ) ;
#621 = DIRECTION ( 'NONE',  ( 1.000000000000000000, 0.0000000000000000000, 0.0000000000000000000 ) ) ;
#622 = DIRECTION ( 'NONE',  ( -0.0000000000000000000, -0.0000000000000000000, -1.000000000000000000 ) ) ;
#623 = DIRECTION ( 'NONE',  ( 0.0000000000000000000, 1.000000000000000000, 0.0000000000000000000 ) ) ;
#624 = CARTESIAN_POINT ( 'NONE',  ( 136.5000000000000000, 3.000000000000000000, 2.999999999999999112 ) ) ;
#625 = VECTOR ( 'NONE', #196, 1000.000000000000000 ) ;
#626 = DIRECTION ( 'NONE',  ( -1.000000000000000000, 0.0000000000000000000, 0.0000000000000000000 ) ) ;
#627 = EDGE_CURVE ( 'NONE', #766, #131, #302, .T. ) ;
#628 = ORIENTED_EDGE ( 'NONE', *, *, #576, .T. ) ;
#629 = EDGE_CURVE ( 'NONE', #122, #964, #247, .T. ) ;
#630 = DIRECTION ( 'NONE',  ( -0.0000000000000000000, -0.0000000000000000000, 1.000000000000000000 ) ) ;
#631 = EDGE_LOOP ( 'NONE', ( #417, #42 ) ) ;
#632 = ORIENTED_EDGE ( 'NONE', *, *, #992, .F. ) ;
#633 = CARTESIAN_POINT ( 'NONE',  ( 3.000000000000000000, 0.0000000000000000000, 3.000000000000000000 ) ) ;
#634 = CARTESIAN_POINT ( 'NONE',  ( 3.000000000000000000, 113.5000000000000000, 30.00000000000000000 ) ) ;
#635 = VECTOR ( 'NONE', #584, 1000.000000000000000 ) ;
#636 = COLOUR_RGB ( '',0.7921568627450980005, 0.8196078431372548767, 0.9333333333333333481 ) ;
#637 = DIRECTION ( 'NONE',  ( 1.000000000000000000, 0.0000000000000000000, 0.0000000000000000000 ) ) ;
#638 = AXIS2_PLACEMENT_3D ( 'NONE', #165, #82, #545 ) ;
#639 = ORIENTED_EDGE ( 'NONE', *, *, #945, .F. ) ;
#640 = ORIENTED_EDGE ( 'NONE', *, *, #576, .F. ) ;
#641 = EDGE_CURVE ( 'NONE', #517, #459, #18, .T. ) ;
#642 = APPLICATION_CONTEXT ( 'automotive_design' ) ;
#643 = ORIENTED_EDGE ( 'NONE', *, *, #914, .F. ) ;
#644 = ADVANCED_FACE ( 'NONE', ( #335 ), #986, .F. ) ;
#645 = AXIS2_PLACEMENT_3D ( 'NONE', #870, #479, #401 ) ;
#646 = DIRECTION ( 'NONE',  ( -0.0000000000000000000, 0.0000000000000000000, 1.000000000000000000 ) ) ;
#647 = MECHANICAL_DESIGN_GEOMETRIC_PRESENTATION_REPRESENTATION (  '', ( #6 ), #875 ) ;
#648 = EDGE_CURVE ( 'NONE', #292, #894, #76, .T. ) ;
#649 = ADVANCED_FACE ( 'NONE', ( #85 ), #802, .F. ) ;
#650 = CARTESIAN_POINT ( 'NONE',  ( 6.000000000000000000, 6.000000000000000000, 2.999999999999999112 ) ) ;
#651 = LINE ( 'NONE', #45, #697 ) ;
#652 = DIRECTION ( 'NONE',  ( -1.000000000000000000, 0.0000000000000000000, 0.0000000000000000000 ) ) ;
#653 = VERTEX_POINT ( 'NONE', #757 ) ;
#654 = VERTEX_POINT ( 'NONE', #520 ) ;
#655 = EDGE_LOOP ( 'NONE', ( #884, #439, #745, #819 ) ) ;
#656 = CARTESIAN_POINT ( 'NONE',  ( 3.000000000000000000, 3.000000000000000000, 0.0000000000000000000 ) ) ;
#657 = ORIENTED_EDGE ( 'NONE', *, *, #50, .T. ) ;
#658 = VECTOR ( 'NONE', #89, 1000.000000000000000 ) ;
#659 = CYLINDRICAL_SURFACE ( 'NONE', #966, 15.00000000000000000 ) ;
#660 = EDGE_CURVE ( 'NONE', #131, #362, #661, .T. ) ;
#661 = CIRCLE ( 'NONE', #970, 3.000000000000000888 ) ;
#662 = EDGE_CURVE ( 'NONE', #517, #984, #847, .T. ) ;
#663 = CYLINDRICAL_SURFACE ( 'NONE', #48, 3.000000000000000000 ) ;
#664 = ORIENTED_EDGE ( 'NONE', *, *, #877, .T. ) ;
#665 = DIRECTION ( 'NONE',  ( 0.0000000000000000000, 0.0000000000000000000, -1.000000000000000000 ) ) ;
#666 = VERTEX_POINT ( 'NONE', #865 ) ;
#667 = VERTEX_POINT ( 'NONE', #390 ) ;
#668 = AXIS2_PLACEMENT_3D ( 'NONE', #112, #904, #911 ) ;
#669 = CARTESIAN_POINT ( 'NONE',  ( 3.000000000000000000, 6.000000000000000000, 3.000000000000000000 ) ) ;
#670 = CIRCLE ( 'NONE', #230, 1.649999999999998579 ) ;
#671 = CIRCLE ( 'NONE', #535, 3.000000000000002665 ) ;
#672 = CARTESIAN_POINT ( 'NONE',  ( 86.25000000000000000, 56.74999999999998579, 3.000000000000000000 ) ) ;
#673 = DIRECTION ( 'NONE',  ( -1.000000000000000000, 0.0000000000000000000, 0.0000000000000000000 ) ) ;
#674 = DIRECTION ( 'NONE',  ( -0.0000000000000000000, 0.0000000000000000000, 1.000000000000000000 ) ) ;
#675 = LINE ( 'NONE', #151, #880 ) ;
#676 = AXIS2_PLACEMENT_3D ( 'NONE', #388, #534, #148 ) ;
#677 = ORIENTED_EDGE ( 'NONE', *, *, #532, .T. ) ;
#678 = EDGE_CURVE ( 'NONE', #309, #795, #107, .T. ) ;
#679 = CIRCLE ( 'NONE', #44, 1.649999999999991696 ) ;
#680 = DIRECTION ( 'NONE',  ( 1.000000000000000000, 0.0000000000000000000, 0.0000000000000000000 ) ) ;
#681 = CARTESIAN_POINT ( 'NONE',  ( 0.0000000000000000000, 113.5000000000000000, 30.00000000000000000 ) ) ;
#682 = AXIS2_PLACEMENT_3D ( 'NONE', #296, #693, #74 ) ;
#683 = DIRECTION ( 'NONE',  ( -0.0000000000000000000, 0.0000000000000000000, 1.000000000000000000 ) ) ;
#684 = EDGE_CURVE ( 'NONE', #569, #894, #276, .T. ) ;
#685 = ORIENTED_EDGE ( 'NONE', *, *, #597, .T. ) ;
#686 = DIRECTION ( 'NONE',  ( 1.000000000000000000, 0.0000000000000000000, 0.0000000000000000000 ) ) ;
#687 = EDGE_LOOP ( 'NONE', ( #728, #446, #780, #740 ) ) ;
#688 = EDGE_LOOP ( 'NONE', ( #755, #147, #879, #260, #323, #753, #159, #566 ) ) ;
#689 = DIRECTION ( 'NONE',  ( 0.0000000000000000000, -0.0000000000000000000, -1.000000000000000000 ) ) ;
#690 = FACE_BOUND ( 'NONE', #506, .T. ) ;
#691 = DIRECTION ( 'NONE',  ( 1.000000000000000000, 0.0000000000000000000, 0.0000000000000000000 ) ) ;
#692 = EDGE_CURVE ( 'NONE', #964, #122, #385, .T. ) ;
#693 = DIRECTION ( 'NONE',  ( -0.0000000000000000000, 0.0000000000000000000, 1.000000000000000000 ) ) ;
#694 = CYLINDRICAL_SURFACE ( 'NONE', #562, 3.000000000000000000 ) ;
#695 = DIRECTION ( 'NONE',  ( 1.000000000000000000, 0.0000000000000000000, 0.0000000000000000000 ) ) ;
#696 = DIRECTION ( 'NONE',  ( 0.0000000000000000000, 1.000000000000000000, -0.0000000000000000000 ) ) ;
#697 = VECTOR ( 'NONE', #971, 1000.000000000000000 ) ;
#698 = CARTESIAN_POINT ( 'NONE',  ( 48.74999999999999289, 34.24999999999998579, 0.0000000000000000000 ) ) ;
#699 = EDGE_CURVE ( 'NONE', #539, #703, #475, .T. ) ;
#700 = ORIENTED_EDGE ( 'NONE', *, *, #609, .F. ) ;
#701 = DIRECTION ( 'NONE',  ( 0.0000000000000000000, 0.0000000000000000000, -1.000000000000000000 ) ) ;
#702 = DIRECTION ( 'NONE',  ( -0.0000000000000000000, -0.0000000000000000000, -1.000000000000000000 ) ) ;
#703 = VERTEX_POINT ( 'NONE', #858 ) ;
#704 = ORIENTED_EDGE ( 'NONE', *, *, #791, .F. ) ;
#705 = FACE_BOUND ( 'NONE', #807, .T. ) ;
#706 = LINE ( 'NONE', #80, #496 ) ;
#707 = CARTESIAN_POINT ( 'NONE',  ( 48.74999999999998579, 79.24999999999998579, 3.000000000000000000 ) ) ;
#708 = DIRECTION ( 'NONE',  ( 0.0000000000000000000, 1.000000000000000000, -0.0000000000000000000 ) ) ;
#709 = LINE ( 'NONE', #432, #625 ) ;
#710 = LINE ( 'NONE', #327, #63 ) ;
#711 = CARTESIAN_POINT ( 'NONE',  ( 95.39999999999999147, 79.24999999999998579, 3.000000000000000000 ) ) ;
#712 = ORIENTED_EDGE ( 'NONE', *, *, #898, .T. ) ;
#713 = EDGE_CURVE ( 'NONE', #667, #36, #575, .T. ) ;
#714 = CARTESIAN_POINT ( 'NONE',  ( 95.39999999999999147, 34.24999999999999289, 0.0000000000000000000 ) ) ;
#715 = ORIENTED_EDGE ( 'NONE', *, *, #597, .F. ) ;
#716 = ORIENTED_EDGE ( 'NONE', *, *, #405, .T. ) ;
#717 = CARTESIAN_POINT ( 'NONE',  ( 3.000000000000000000, 3.000000000000000000, 30.00000000000000000 ) ) ;
#718 = FACE_BOUND ( 'NONE', #53, .T. ) ;
#719 = AXIS2_PLACEMENT_3D ( 'NONE', #527, #915, #924 ) ;
#720 = ADVANCED_FACE ( 'NONE', ( #442 ), #543, .T. ) ;
#721 = LINE ( 'NONE', #218, #334 ) ;
#722 = VECTOR ( 'NONE', #708, 1000.000000000000000 ) ;
#723 = CARTESIAN_POINT ( 'NONE',  ( 93.74999999999998579, 79.24999999999998579, 3.000000000000000000 ) ) ;
#724 = DIRECTION ( 'NONE',  ( -0.0000000000000000000, 0.0000000000000000000, 1.000000000000000000 ) ) ;
#725 = ORIENTED_EDGE ( 'NONE', *, *, #678, .T. ) ;
#726 = ADVANCED_FACE ( 'NONE', ( #27 ), #694, .T. ) ;
#727 = DIRECTION ( 'NONE',  ( -0.0000000000000000000, -0.0000000000000000000, 1.000000000000000000 ) ) ;
#728 = ORIENTED_EDGE ( 'NONE', *, *, #49, .T. ) ;
#729 = ORIENTED_EDGE ( 'NONE', *, *, #692, .F. ) ;
#730 = APPLICATION_PROTOCOL_DEFINITION ( 'draft international standard', 'automotive_design', 1998, #642 ) ;
#731 = EDGE_LOOP ( 'NONE', ( #239, #643, #640, #65 ) ) ;
#732 = ADVANCED_FACE ( 'NONE', ( #367 ), #659, .F. ) ;
#733 = ADVANCED_FACE ( 'NONE', ( #72 ), #271, .F. ) ;
#734 = AXIS2_PLACEMENT_3D ( 'NONE', #955, #561, #22 ) ;
#735 = EDGE_CURVE ( 'NONE', #741, #376, #464, .T. ) ;
#736 = EDGE_CURVE ( 'NONE', #832, #771, #152, .T. ) ;
#737 = LINE ( 'NONE', #610, #958 ) ;
#738 = ADVANCED_FACE ( 'NONE', ( #222 ), #39, .F. ) ;
#739 = DIRECTION ( 'NONE',  ( 1.000000000000000000, 0.0000000000000000000, 0.0000000000000000000 ) ) ;
#740 = ORIENTED_EDGE ( 'NONE', *, *, #10, .T. ) ;
#741 = VERTEX_POINT ( 'NONE', #932 ) ;
#742 = EDGE_LOOP ( 'NONE', ( #725, #47, #264, #328 ) ) ;
#743 = AXIS2_PLACEMENT_3D ( 'NONE', #845, #377, #839 ) ;
#744 = ORIENTED_EDGE ( 'NONE', *, *, #492, .F. ) ;
#745 = ORIENTED_EDGE ( 'NONE', *, *, #150, .F. ) ;
#746 = EDGE_CURVE ( 'NONE', #426, #913, #608, .T. ) ;
#747 = CIRCLE ( 'NONE', #181, 1.649999999999998579 ) ;
#748 = DIRECTION ( 'NONE',  ( 0.0000000000000000000, 1.000000000000000000, -0.0000000000000000000 ) ) ;
#749 = AXIS2_PLACEMENT_3D ( 'NONE', #26, #397, #155 ) ;
#750 = VECTOR ( 'NONE', #934, 1000.000000000000000 ) ;
#751 = PLANE ( 'NONE',  #411 ) ;
#752 = CIRCLE ( 'NONE', #944, 1.649999999999991696 ) ;
#753 = ORIENTED_EDGE ( 'NONE', *, *, #791, .T. ) ;
#754 = DIRECTION ( 'NONE',  ( 0.0000000000000000000, 0.0000000000000000000, -1.000000000000000000 ) ) ;
#755 = ORIENTED_EDGE ( 'NONE', *, *, #713, .T. ) ;
#756 = EDGE_CURVE ( 'NONE', #913, #226, #199, .T. ) ;
#757 = CARTESIAN_POINT ( 'NONE',  ( 0.0000000000000000000, 110.5000000000000000, 0.0000000000000000000 ) ) ;
#758 = FACE_BOUND ( 'NONE', #631, .T. ) ;
#759 = LINE ( 'NONE', #765, #889 ) ;
#760 = CIRCLE ( 'NONE', #273, 15.00000000000000000 ) ;
#761 = DIRECTION ( 'NONE',  ( 0.0000000000000000000, 1.000000000000000000, -0.0000000000000000000 ) ) ;
#762 = CIRCLE ( 'NONE', #749, 1.649999999999998579 ) ;
#763 = ORIENTED_EDGE ( 'NONE', *, *, #266, .T. ) ;
#764 = ORIENTED_EDGE ( 'NONE', *, *, #153, .F. ) ;
#765 = CARTESIAN_POINT ( 'NONE',  ( 95.39999999999999147, 79.24999999999998579, 3.000000000000000000 ) ) ;
#766 = VERTEX_POINT ( 'NONE', #849 ) ;
#767 = EDGE_LOOP ( 'NONE', ( #639, #215 ) ) ;
#768 = EDGE_CURVE ( 'NONE', #437, #226, #316, .T. ) ;
#769 = ORIENTED_EDGE ( 'NONE', *, *, #641, .T. ) ;
#770 = CARTESIAN_POINT ( 'NONE',  ( 3.000000000000000000, 107.5000000000000000, 3.000000000000000000 ) ) ;
#771 = VERTEX_POINT ( 'NONE', #128 ) ;
#772 = EDGE_CURVE ( 'NONE', #376, #654, #105, .T. ) ;
#773 = CARTESIAN_POINT ( 'NONE',  ( 48.74999999999998579, 79.24999999999998579, 3.000000000000000000 ) ) ;
#774 = CARTESIAN_POINT ( 'NONE',  ( 0.0000000000000000000, 0.0000000000000000000, 0.0000000000000000000 ) ) ;
#775 = PLANE ( 'NONE',  #198 ) ;
#776 = CIRCLE ( 'NONE', #583, 3.000000000000000000 ) ;
#777 = AXIS2_PLACEMENT_3D ( 'NONE', #521, #67, #130 ) ;
#778 = DIRECTION ( 'NONE',  ( 1.000000000000000000, 0.0000000000000000000, 0.0000000000000000000 ) ) ;
#779 = DIRECTION ( 'NONE',  ( -0.0000000000000000000, 0.0000000000000000000, 1.000000000000000000 ) ) ;
#780 = ORIENTED_EDGE ( 'NONE', *, *, #203, .F. ) ;
#781 = ORIENTED_EDGE ( 'NONE', *, *, #945, .T. ) ;
#782 = DIRECTION ( 'NONE',  ( -1.000000000000000000, 0.0000000000000000000, 0.0000000000000000000 ) ) ;
#783 = EDGE_LOOP ( 'NONE', ( #326, #983, #549, #164 ) ) ;
#784 = VERTEX_POINT ( 'NONE', #282 ) ;
#785 = CARTESIAN_POINT ( 'NONE',  ( 93.74999999999998579, 79.24999999999998579, 0.0000000000000000000 ) ) ;
#786 = DIRECTION ( 'NONE',  ( -0.0000000000000000000, 0.0000000000000000000, 1.000000000000000000 ) ) ;
#787 = STYLED_ITEM ( 'NONE', ( #58 ), #272 ) ;
#788 = DIRECTION ( 'NONE',  ( -0.0000000000000000000, -0.0000000000000000000, -1.000000000000000000 ) ) ;
#789 = AXIS2_PLACEMENT_3D ( 'NONE', #410, #168, #797 ) ;
#790 = FACE_OUTER_BOUND ( 'NONE', #655, .T. ) ;
#791 = EDGE_CURVE ( 'NONE', #129, #88, #345, .T. ) ;
#792 = EDGE_LOOP ( 'NONE', ( #413, #935, #990, #93 ) ) ;
#793 = CARTESIAN_POINT ( 'NONE',  ( 139.5000000000000000, 113.5000000000000000, 0.0000000000000000000 ) ) ;
#794 = VERTEX_POINT ( 'NONE', #66 ) ;
#795 = VERTEX_POINT ( 'NONE', #134 ) ;
#796 = CARTESIAN_POINT ( 'NONE',  ( 95.39999999999999147, 79.24999999999998579, 0.0000000000000000000 ) ) ;
#797 = DIRECTION ( 'NONE',  ( 1.000000000000000000, 0.0000000000000000000, 0.0000000000000000000 ) ) ;
#798 = AXIS2_PLACEMENT_3D ( 'NONE', #723, #337, #257 ) ;
#799 = CYLINDRICAL_SURFACE ( 'NONE', #420, 1.649999999999998579 ) ;
#800 = DIRECTION ( 'NONE',  ( 1.000000000000000000, 0.0000000000000000000, 0.0000000000000000000 ) ) ;
#801 = EDGE_CURVE ( 'NONE', #278, #974, #396, .T. ) ;
#802 = CYLINDRICAL_SURFACE ( 'NONE', #394, 3.000000000000000000 ) ;
#803 = CYLINDRICAL_SURFACE ( 'NONE', #511, 1.649999999999998579 ) ;
#804 = CARTESIAN_POINT ( 'NONE',  ( 48.74999999999999289, 34.24999999999998579, 3.000000000000000000 ) ) ;
#805 = ADVANCED_FACE ( 'NONE', ( #985, #572, #758, #918, #705, #188 ), #775, .T. ) ;
#806 = DIRECTION ( 'NONE',  ( -0.0000000000000000000, -0.0000000000000000000, -1.000000000000000000 ) ) ;
#807 = EDGE_LOOP ( 'NONE', ( #263, #393 ) ) ;
#808 = ORIENTED_EDGE ( 'NONE', *, *, #329, .T. ) ;
#809 = EDGE_LOOP ( 'NONE', ( #525, #267, #685, #515 ) ) ;
#810 = DIRECTION ( 'NONE',  ( 1.000000000000000000, 0.0000000000000000000, 0.0000000000000000000 ) ) ;
#811 = ADVANCED_FACE ( 'NONE', ( #381 ), #220, .F. ) ;
#812 = CARTESIAN_POINT ( 'NONE',  ( 3.000000000000000000, 113.5000000000000000, 0.0000000000000000000 ) ) ;
#813 = VECTOR ( 'NONE', #526, 1000.000000000000000 ) ;
#814 = AXIS2_PLACEMENT_3D ( 'NONE', #498, #574, #346 ) ;
#815 = ADVANCED_FACE ( 'NONE', ( #4 ), #799, .F. ) ;
#816 = CIRCLE ( 'NONE', #719, 3.000000000000000000 ) ;
#817 = ORIENTED_EDGE ( 'NONE', *, *, #201, .T. ) ;
#818 = SURFACE_STYLE_USAGE ( .BOTH. , #418 ) ;
#819 = ORIENTED_EDGE ( 'NONE', *, *, #772, .F. ) ;
#820 = ADVANCED_FACE ( 'NONE', ( #167 ), #270, .F. ) ;
#821 = ORIENTED_EDGE ( 'NONE', *, *, #756, .F. ) ;
#822 = PLANE ( 'NONE',  #668 ) ;
#823 = SURFACE_STYLE_FILL_AREA ( #331 ) ;
#824 = ADVANCED_FACE ( 'NONE', ( #977 ), #462, .F. ) ;
#825 = ADVANCED_FACE ( 'NONE', ( #907 ), #431, .F. ) ;
#826 = EDGE_CURVE ( 'NONE', #226, #204, #671, .T. ) ;
#827 = VECTOR ( 'NONE', #806, 1000.000000000000000 ) ;
#828 = VECTOR ( 'NONE', #358, 1000.000000000000000 ) ;
#829 = LINE ( 'NONE', #558, #501 ) ;
#830 = VERTEX_POINT ( 'NONE', #474 ) ;
#831 = ORIENTED_EDGE ( 'NONE', *, *, #17, .T. ) ;
#832 = VERTEX_POINT ( 'NONE', #939 ) ;
#833 = ORIENTED_EDGE ( 'NONE', *, *, #692, .T. ) ;
#834 = COLOUR_RGB ( '',0.7921568627450980005, 0.8196078431372548767, 0.9333333333333333481 ) ;
#835 = DIRECTION ( 'NONE',  ( -0.0000000000000000000, -0.0000000000000000000, 1.000000000000000000 ) ) ;
#836 = PRODUCT_DEFINITION_FORMATION_WITH_SPECIFIED_SOURCE ( 'ANY', '', #598, .NOT_KNOWN. ) ;
#837 = PRESENTATION_LAYER_ASSIGNMENT (  '', '', ( #787 ) ) ;
#838 = ORIENTED_EDGE ( 'NONE', *, *, #898, .F. ) ;
#839 = DIRECTION ( 'NONE',  ( 0.0000000000000000000, 0.0000000000000000000, 1.000000000000000000 ) ) ;
#840 = AXIS2_PLACEMENT_3D ( 'NONE', #78, #404, #92 ) ;
#841 = ORIENTED_EDGE ( 'NONE', *, *, #480, .T. ) ;
#842 = EDGE_CURVE ( 'NONE', #556, #88, #861, .T. ) ;
#843 = DIRECTION ( 'NONE',  ( -0.0000000000000000000, -0.0000000000000000000, -1.000000000000000000 ) ) ;
#844 = CARTESIAN_POINT ( 'NONE',  ( 93.74999999999998579, 79.24999999999998579, 3.000000000000000000 ) ) ;
#845 = CARTESIAN_POINT ( 'NONE',  ( 3.000000000000000000, 0.0000000000000000000, 30.00000000000000000 ) ) ;
#846 = DIRECTION ( 'NONE',  ( 1.000000000000000000, 0.0000000000000000000, 0.0000000000000000000 ) ) ;
#847 = LINE ( 'NONE', #601, #408 ) ;
#848 = AXIS2_PLACEMENT_3D ( 'NONE', #854, #221, #15 ) ;
#849 = CARTESIAN_POINT ( 'NONE',  ( 3.000000000000000000, 6.000000000000000000, 30.00000000000000000 ) ) ;
#850 = EDGE_CURVE ( 'NONE', #766, #556, #347, .T. ) ;
#851 = DIRECTION ( 'NONE',  ( 0.0000000000000000000, -0.0000000000000000000, 1.000000000000000000 ) ) ;
#852 = ORIENTED_EDGE ( 'NONE', *, *, #233, .T. ) ;
#853 = CARTESIAN_POINT ( 'NONE',  ( 93.74999999999998579, 79.24999999999998579, 3.000000000000000000 ) ) ;
#854 = CARTESIAN_POINT ( 'NONE',  ( 136.5000000000000000, 6.000000000000000000, 30.00000000000000000 ) ) ;
#855 = ORIENTED_EDGE ( 'NONE', *, *, #746, .F. ) ;
#856 = DIRECTION ( 'NONE',  ( -1.000000000000000000, 0.0000000000000000000, 0.0000000000000000000 ) ) ;
#857 = EDGE_LOOP ( 'NONE', ( #744, #592, #427, #399 ) ) ;
#858 = CARTESIAN_POINT ( 'NONE',  ( 136.5000000000000000, 3.000000000000000000, 30.00000000000000000 ) ) ;
#859 = FACE_OUTER_BOUND ( 'NONE', #403, .T. ) ;
#860 = AXIS2_PLACEMENT_3D ( 'NONE', #890, #419, #883 ) ;
#861 = LINE ( 'NONE', #633, #299 ) ;
#862 = CARTESIAN_POINT ( 'NONE',  ( 136.5000000000000000, 110.5000000000000000, 30.00000000000000000 ) ) ;
#863 = AXIS2_PLACEMENT_3D ( 'NONE', #231, #788, #14 ) ;
#864 = DIRECTION ( 'NONE',  ( 0.0000000000000000000, 1.000000000000000000, -0.0000000000000000000 ) ) ;
#865 = CARTESIAN_POINT ( 'NONE',  ( 142.5000000000000284, 110.5000000000000000, 30.00000000000000000 ) ) ;
#866 = DIRECTION ( 'NONE',  ( 1.000000000000000000, 0.0000000000000000000, 0.0000000000000000000 ) ) ;
#867 = UNCERTAINTY_MEASURE_WITH_UNIT (LENGTH_MEASURE( 1.000000000000000082E-05 ), #104, 'distance_accuracy_value', 'NONE');
#868 = AXIS2_PLACEMENT_3D ( 'NONE', #461, #931, #680 ) ;
#869 = EDGE_CURVE ( 'NONE', #600, #389, #268, .T. ) ;
#870 = CARTESIAN_POINT ( 'NONE',  ( 48.74999999999999289, 34.24999999999998579, 3.000000000000000000 ) ) ;
#871 = DIRECTION ( 'NONE',  ( 0.0000000000000000000, 1.000000000000000000, -0.0000000000000000000 ) ) ;
#872 = ORIENTED_EDGE ( 'NONE', *, *, #285, .F. ) ;
#873 = VERTEX_POINT ( 'NONE', #320 ) ;
#874 = ORIENTED_EDGE ( 'NONE', *, *, #660, .T. ) ;
#875 =( GEOMETRIC_REPRESENTATION_CONTEXT ( 3 ) GLOBAL_UNCERTAINTY_ASSIGNED_CONTEXT ( ( #571 ) ) GLOBAL_UNIT_ASSIGNED_CONTEXT ( ( #961, #490, #965 ) ) REPRESENTATION_CONTEXT ( 'NONE', 'WORKASPACE' ) );
#876 = DIRECTION ( 'NONE',  ( 1.000000000000000000, 0.0000000000000000000, 0.0000000000000000000 ) ) ;
#877 = EDGE_CURVE ( 'NONE', #459, #794, #585, .T. ) ;
#878 =( NAMED_UNIT ( * ) SI_UNIT ( $, .STERADIAN. ) SOLID_ANGLE_UNIT ( ) );
#879 = ORIENTED_EDGE ( 'NONE', *, *, #768, .T. ) ;
#880 = VECTOR ( 'NONE', #303, 1000.000000000000000 ) ;
#881 = PLANE ( 'NONE',  #988 ) ;
#882 = EDGE_LOOP ( 'NONE', ( #435, #356, #677, #133 ) ) ;
#883 = DIRECTION ( 'NONE',  ( 1.000000000000000000, 0.0000000000000000000, 0.0000000000000000000 ) ) ;
#884 = ORIENTED_EDGE ( 'NONE', *, *, #735, .F. ) ;
#885 = DIRECTION ( 'NONE',  ( 1.000000000000000000, 0.0000000000000000000, 0.0000000000000000000 ) ) ;
#886 = DIRECTION ( 'NONE',  ( 1.000000000000000000, 0.0000000000000000000, 0.0000000000000000000 ) ) ;
#887 = ADVANCED_FACE ( 'NONE', ( #71 ), #224, .T. ) ;
#888 = LINE ( 'NONE', #927, #512 ) ;
#889 = VECTOR ( 'NONE', #444, 1000.000000000000000 ) ;
#890 = CARTESIAN_POINT ( 'NONE',  ( 0.0000000000000000000, 0.0000000000000000000, 0.0000000000000000000 ) ) ;
#891 = LINE ( 'NONE', #56, #635 ) ;
#892 = DIRECTION ( 'NONE',  ( -0.0000000000000000000, 0.0000000000000000000, 1.000000000000000000 ) ) ;
#893 = CARTESIAN_POINT ( 'NONE',  ( 6.000000000000000000, 3.000000000000000000, 30.00000000000000000 ) ) ;
#894 = VERTEX_POINT ( 'NONE', #550 ) ;
#895 = AXIS2_PLACEMENT_3D ( 'NONE', #537, #295, #453 ) ;
#896 = ADVANCED_FACE ( 'NONE', ( #718, #690, #317, #166, #919, #859 ), #28, .F. ) ;
#897 = CARTESIAN_POINT ( 'NONE',  ( 6.000000000000000000, 110.5000000000000000, 30.00000000000000000 ) ) ;
#898 = EDGE_CURVE ( 'NONE', #654, #277, #706, .T. ) ;
#899 = DIRECTION ( 'NONE',  ( -0.0000000000000000000, -0.0000000000000000000, -1.000000000000000000 ) ) ;
#900 = LINE ( 'NONE', #681, #465 ) ;
#901 = CIRCLE ( 'NONE', #210, 3.000000000000000000 ) ;
#902 = ORIENTED_EDGE ( 'NONE', *, *, #826, .F. ) ;
#903 = ORIENTED_EDGE ( 'NONE', *, *, #31, .T. ) ;
#904 = DIRECTION ( 'NONE',  ( 0.0000000000000000000, 1.000000000000000000, 0.0000000000000000000 ) ) ;
#905 = EDGE_LOOP ( 'NONE', ( #255, #972, #288, #177 ) ) ;
#906 = CARTESIAN_POINT ( 'NONE',  ( 95.39999999999999147, 34.24999999999999289, 3.000000000000000000 ) ) ;
#907 = FACE_OUTER_BOUND ( 'NONE', #982, .T. ) ;
#908 = CARTESIAN_POINT ( 'NONE',  ( 0.0000000000000000000, 0.0000000000000000000, 30.00000000000000000 ) ) ;
#909 = FACE_OUTER_BOUND ( 'NONE', #372, .T. ) ;
#910 = AXIS2_PLACEMENT_3D ( 'NONE', #541, #84, #311 ) ;
#911 = DIRECTION ( 'NONE',  ( 0.0000000000000000000, -0.0000000000000000000, 1.000000000000000000 ) ) ;
#912 = VERTEX_POINT ( 'NONE', #714 ) ;
#913 = VERTEX_POINT ( 'NONE', #162 ) ;
#914 = EDGE_CURVE ( 'NONE', #375, #325, #219, .T. ) ;
#915 = DIRECTION ( 'NONE',  ( 0.0000000000000000000, -0.0000000000000000000, -1.000000000000000000 ) ) ;
#916 = EDGE_LOOP ( 'NONE', ( #113, #242, #46, #602 ) ) ;
#917 = PRODUCT_DEFINITION_SHAPE ( 'NONE', 'NONE',  #940 ) ;
#918 = FACE_BOUND ( 'NONE', #582, .T. ) ;
#919 = FACE_BOUND ( 'NONE', #228, .T. ) ;
#920 = DIRECTION ( 'NONE',  ( 1.000000000000000000, 0.0000000000000000000, 0.0000000000000000000 ) ) ;
#921 = CARTESIAN_POINT ( 'NONE',  ( 93.74999999999998579, 79.24999999999998579, 0.0000000000000000000 ) ) ;
#922 = CIRCLE ( 'NONE', #840, 3.000000000000000888 ) ;
#923 = VERTEX_POINT ( 'NONE', #544 ) ;
#924 = DIRECTION ( 'NONE',  ( 1.000000000000000000, 0.0000000000000000000, 0.0000000000000000000 ) ) ;
#925 = EDGE_CURVE ( 'NONE', #912, #830, #670, .T. ) ;
#926 = ORIENTED_EDGE ( 'NONE', *, *, #641, .F. ) ;
#927 = CARTESIAN_POINT ( 'NONE',  ( 0.0000000000000000000, 0.0000000000000000000, 0.0000000000000000000 ) ) ;
#928 = ORIENTED_EDGE ( 'NONE', *, *, #186, .T. ) ;
#929 = CARTESIAN_POINT ( 'NONE',  ( 139.5000000000000000, 0.0000000000000000000, 3.000000000000000000 ) ) ;
#930 = ORIENTED_EDGE ( 'NONE', *, *, #591, .F. ) ;
#931 = DIRECTION ( 'NONE',  ( -0.0000000000000000000, 0.0000000000000000000, 1.000000000000000000 ) ) ;
#932 = CARTESIAN_POINT ( 'NONE',  ( 139.5000000000000000, 0.0000000000000000000, 30.00000000000000000 ) ) ;
#933 = FACE_OUTER_BOUND ( 'NONE', #687, .T. ) ;
#934 = DIRECTION ( 'NONE',  ( 0.0000000000000000000, 1.000000000000000000, -0.0000000000000000000 ) ) ;
#935 = ORIENTED_EDGE ( 'NONE', *, *, #251, .T. ) ;
#936 = CARTESIAN_POINT ( 'NONE',  ( 56.24999999999999289, 56.74999999999998579, 3.000000000000000000 ) ) ;
#937 = ORIENTED_EDGE ( 'NONE', *, *, #201, .F. ) ;
#938 = DIRECTION ( 'NONE',  ( -0.0000000000000000000, 0.0000000000000000000, 1.000000000000000000 ) ) ;
#939 = CARTESIAN_POINT ( 'NONE',  ( 47.09999999999998721, 79.24999999999998579, 0.0000000000000000000 ) ) ;
#940 = PRODUCT_DEFINITION ( 'UNKNOWN', '', #836, #125 ) ;
#941 = DIRECTION ( 'NONE',  ( 1.000000000000000000, 0.0000000000000000000, 0.0000000000000000000 ) ) ;
#942 = AXIS2_PLACEMENT_3D ( 'NONE', #25, #154, #546 ) ;
#943 = DIRECTION ( 'NONE',  ( 0.0000000000000000000, 0.0000000000000000000, 1.000000000000000000 ) ) ;
#944 = AXIS2_PLACEMENT_3D ( 'NONE', #102, #646, #885 ) ;
#945 = EDGE_CURVE ( 'NONE', #551, #292, #679, .T. ) ;
#946 = FACE_OUTER_BOUND ( 'NONE', #980, .T. ) ;
#947 = ORIENTED_EDGE ( 'NONE', *, *, #629, .F. ) ;
#948 = ORIENTED_EDGE ( 'NONE', *, *, #606, .F. ) ;
#949 = CARTESIAN_POINT ( 'NONE',  ( 93.74999999999998579, 34.24999999999999289, 0.0000000000000000000 ) ) ;
#950 = ORIENTED_EDGE ( 'NONE', *, *, #519, .F. ) ;
#951 = AXIS2_PLACEMENT_3D ( 'NONE', #243, #415, #486 ) ;
#952 = CARTESIAN_POINT ( 'NONE',  ( 139.5000000000000000, 0.0000000000000000000, 30.00000000000000000 ) ) ;
#953 = AXIS2_PLACEMENT_3D ( 'NONE', #595, #265, #123 ) ;
#954 =( LENGTH_UNIT ( ) NAMED_UNIT ( * ) SI_UNIT ( .MILLI., .METRE. ) );
#955 = CARTESIAN_POINT ( 'NONE',  ( 139.5000000000000000, 3.000000000000000000, 0.0000000000000000000 ) ) ;
#956 = DIRECTION ( 'NONE',  ( -0.0000000000000000000, -0.0000000000000000000, 1.000000000000000000 ) ) ;
#957 = LINE ( 'NONE', #287, #75 ) ;
#958 = VECTOR ( 'NONE', #279, 1000.000000000000000 ) ;
#959 = CARTESIAN_POINT ( 'NONE',  ( 50.39999999999998437, 79.24999999999998579, 3.000000000000000000 ) ) ;
#960 = ORIENTED_EDGE ( 'NONE', *, *, #103, .T. ) ;
#961 =( LENGTH_UNIT ( ) NAMED_UNIT ( * ) SI_UNIT ( .MILLI., .METRE. ) );
#962 = EDGE_LOOP ( 'NONE', ( #716, #402, #729, #994 ) ) ;
#963 = ORIENTED_EDGE ( 'NONE', *, *, #801, .T. ) ;
#964 = VERTEX_POINT ( 'NONE', #406 ) ;
#965 =( NAMED_UNIT ( * ) SI_UNIT ( $, .STERADIAN. ) SOLID_ANGLE_UNIT ( ) );
#966 = AXIS2_PLACEMENT_3D ( 'NONE', #463, #702, #139 ) ;
#967 = EDGE_CURVE ( 'NONE', #771, #832, #747, .T. ) ;
#968 = SURFACE_SIDE_STYLE ('',( #823 ) ) ;
#969 = VECTOR ( 'NONE', #360, 1000.000000000000000 ) ;
#970 = AXIS2_PLACEMENT_3D ( 'NONE', #146, #689, #395 ) ;
#971 = DIRECTION ( 'NONE',  ( 1.000000000000000000, 0.0000000000000000000, 0.0000000000000000000 ) ) ;
#972 = ORIENTED_EDGE ( 'NONE', *, *, #436, .T. ) ;
#973 = EDGE_CURVE ( 'NONE', #667, #873, #557, .T. ) ;
#974 = VERTEX_POINT ( 'NONE', #324 ) ;
#975 = ORIENTED_EDGE ( 'NONE', *, *, #591, .T. ) ;
#976 = AXIS2_PLACEMENT_3D ( 'NONE', #392, #622, #856 ) ;
#977 = FACE_OUTER_BOUND ( 'NONE', #567, .T. ) ;
#978 = VECTOR ( 'NONE', #754, 1000.000000000000000 ) ;
#979 = CYLINDRICAL_SURFACE ( 'NONE', #477, 3.000000000000002665 ) ;
#980 = EDGE_LOOP ( 'NONE', ( #57, #310, #307, #364 ) ) ;
#981 = CARTESIAN_POINT ( 'NONE',  ( 56.24999999999999289, 56.74999999999998579, 3.000000000000000000 ) ) ;
#982 = EDGE_LOOP ( 'NONE', ( #163, #769, #664, #241 ) ) ;
#983 = ORIENTED_EDGE ( 'NONE', *, *, #529, .T. ) ;
#984 = VERTEX_POINT ( 'NONE', #559 ) ;
#985 = FACE_BOUND ( 'NONE', #183, .T. ) ;
#986 = PLANE ( 'NONE',  #743 ) ;
#987 = LINE ( 'NONE', #433, #321 ) ;
#988 = AXIS2_PLACEMENT_3D ( 'NONE', #319, #476, #941 ) ;
#989 = ORIENTED_EDGE ( 'NONE', *, *, #801, .F. ) ;
#990 = ORIENTED_EDGE ( 'NONE', *, *, #503, .T. ) ;
#991 = DIRECTION ( 'NONE',  ( 0.0000000000000000000, 0.0000000000000000000, 1.000000000000000000 ) ) ;
#992 = EDGE_CURVE ( 'NONE', #556, #667, #379, .T. ) ;
#993 = DIRECTION ( 'NONE',  ( 1.000000000000000000, 0.0000000000000000000, 0.0000000000000000000 ) ) ;
#994 = ORIENTED_EDGE ( 'NONE', *, *, #540, .F. ) ;
ENDSEC;
END-ISO-10303-21;
